\relax 
\FN@pp@footnotehinttrue 
\FN@pp@footnotehinttrue 
\FN@pp@footnotehinttrue 
\@setckpt{00-abstract}{
\setcounter{page}{2}
\setcounter{equation}{0}
\setcounter{enumi}{0}
\setcounter{enumii}{0}
\setcounter{enumiii}{0}
\setcounter{enumiv}{0}
\setcounter{footnote}{0}
\setcounter{mpfootnote}{0}
\setcounter{totalpage}{0}
\setcounter{totaltable}{0}
\setcounter{totalfigure}{0}
\setcounter{totalbib}{0}
\setcounter{chapter}{0}
\setcounter{section}{0}
\setcounter{subsection}{0}
\setcounter{subsubsection}{0}
\setcounter{parentequation}{0}
\setcounter{ContinuedFloat}{0}
\setcounter{figure}{0}
\setcounter{table}{0}
\setcounter{LT@tables}{0}
\setcounter{LT@chunks}{0}
\setcounter{pp@next@reset}{1}
\setcounter{@fnserial}{0}
\setcounter{Item}{0}
\setcounter{Hfootnote}{0}
\setcounter{bookmark@seq@number}{0}
\setcounter{KVtest}{0}
\setcounter{subfigure}{0}
\setcounter{subfigure@save}{0}
\setcounter{lofdepth}{1}
\setcounter{subtable}{0}
\setcounter{subtable@save}{0}
\setcounter{SC@C}{0}
\setcounter{preinst}{0}
\setcounter{instnum}{0}
\setcounter{threadnum}{0}
\setcounter{seqlevel}{0}
\setcounter{callevel}{0}
\setcounter{callselflevel}{0}
\setcounter{blocklevel}{0}
\setcounter{lstnumber}{1}
\setcounter{section@level}{0}
\setcounter{lstlisting}{0}
}
