\relax 
\FN@pp@footnotehinttrue 
\@writefile{toc}{\contentsline {chapter}{\numberline {1}\IeC {\CYRA }\IeC {\cyrn }\IeC {\cyra }\IeC {\cyrl }\IeC {\cyri }\IeC {\cyrt }\IeC {\cyri }\IeC {\cyrch }\IeC {\cyre }\IeC {\cyrs }\IeC {\cyrk }\IeC {\cyri }\IeC {\cyrishrt } \IeC {\cyrr }\IeC {\cyra }\IeC {\cyrz }\IeC {\cyrd }\IeC {\cyre }\IeC {\cyrl }}{6}{chapter.1}}
\newlabel{cha:analysis}{{1}{6}{Аналитический раздел\relax }{chapter.1}{}}
\@writefile{toc}{\contentsline {section}{\numberline {1.1}\IeC {\CYRA }\IeC {\cyrn }\IeC {\cyra }\IeC {\cyrl }\IeC {\cyri }\IeC {\cyrz } \IeC {\cyrp }\IeC {\cyrr }\IeC {\cyre }\IeC {\cyrd }\IeC {\cyrm }\IeC {\cyre }\IeC {\cyrt }\IeC {\cyrn }\IeC {\cyro }\IeC {\cyrishrt } \IeC {\cyro }\IeC {\cyrb }\IeC {\cyrl }\IeC {\cyra }\IeC {\cyrs }\IeC {\cyrt }\IeC {\cyri }}{6}{section.1.1}}
\@writefile{toc}{\contentsline {section}{\numberline {1.2}\IeC {\CYRS }\IeC {\cyru }\IeC {\cyrshch }\IeC {\cyre }\IeC {\cyrs }\IeC {\cyrt }\IeC {\cyrv }\IeC {\cyru }\IeC {\cyryu }\IeC {\cyrshch }\IeC {\cyri }\IeC {\cyre } \IeC {\cyrs }\IeC {\cyri }\IeC {\cyrs }\IeC {\cyrt }\IeC {\cyre }\IeC {\cyrm }\IeC {\cyrery } \IeC {\cyrp }\IeC {\cyro }\IeC {\cyri }\IeC {\cyrs }\IeC {\cyrk }\IeC {\cyra } \IeC {\cyri }\IeC {\cyrz }\IeC {\cyro }\IeC {\cyrb }\IeC {\cyrr }\IeC {\cyra }\IeC {\cyrzh }\IeC {\cyre }\IeC {\cyrn }\IeC {\cyri }\IeC {\cyrishrt } \IeC {\cyrp }\IeC {\cyro } \IeC {\cyrs }\IeC {\cyro }\IeC {\cyrd }\IeC {\cyre }\IeC {\cyrr }\IeC {\cyrzh }\IeC {\cyra }\IeC {\cyrn }\IeC {\cyri }\IeC {\cyryu }}{6}{section.1.2}}
\@writefile{toc}{\contentsline {section}{\numberline {1.3}\IeC {\CYRT }\IeC {\cyrr }\IeC {\cyre }\IeC {\cyrb }\IeC {\cyro }\IeC {\cyrv }\IeC {\cyra }\IeC {\cyrn }\IeC {\cyri }\IeC {\cyrya } \IeC {\cyrk } \IeC {\cyrp }\IeC {\cyro }\IeC {\cyrd }\IeC {\cyrs }\IeC {\cyri }\IeC {\cyrs }\IeC {\cyrt }\IeC {\cyre }\IeC {\cyrm }\IeC {\cyre }}{8}{section.1.3}}
\@writefile{toc}{\contentsline {subsection}{\numberline {1.3.1}\IeC {\CYRV }\IeC {\cyrery }\IeC {\cyrs }\IeC {\cyro }\IeC {\cyrk }\IeC {\cyro }\IeC {\cyru }\IeC {\cyrr }\IeC {\cyro }\IeC {\cyrv }\IeC {\cyrn }\IeC {\cyre }\IeC {\cyrv }\IeC {\cyrery }\IeC {\cyre } \IeC {\cyrt }\IeC {\cyrr }\IeC {\cyre }\IeC {\cyrb }\IeC {\cyro }\IeC {\cyrv }\IeC {\cyra }\IeC {\cyrn }\IeC {\cyri }\IeC {\cyrya } \IeC {\cyrk } \IeC {\cyrp }\IeC {\cyro }\IeC {\cyrd }\IeC {\cyrs }\IeC {\cyri }\IeC {\cyrs }\IeC {\cyrt }\IeC {\cyre }\IeC {\cyrm }\IeC {\cyre }}{8}{subsection.1.3.1}}
\@writefile{toc}{\contentsline {subsection}{\numberline {1.3.2}\IeC {\CYRF }\IeC {\cyru }\IeC {\cyrn }\IeC {\cyrk }\IeC {\cyrc }\IeC {\cyri }\IeC {\cyro }\IeC {\cyrn }\IeC {\cyra }\IeC {\cyrl }\IeC {\cyrsftsn }\IeC {\cyrn }\IeC {\cyrery }\IeC {\cyre } \IeC {\cyrt }\IeC {\cyrr }\IeC {\cyre }\IeC {\cyrb }\IeC {\cyro }\IeC {\cyrv }\IeC {\cyra }\IeC {\cyrn }\IeC {\cyri }\IeC {\cyrya } \IeC {\cyrk } \IeC {\cyrp }\IeC {\cyro }\IeC {\cyrd }\IeC {\cyrs }\IeC {\cyri }\IeC {\cyrs }\IeC {\cyrt }\IeC {\cyre }\IeC {\cyrm }\IeC {\cyre } ``\IeC {\CYRP }\IeC {\cyro }\IeC {\cyri }\IeC {\cyrs }\IeC {\cyrk }\IeC {\cyro }\IeC {\cyrv }\IeC {\cyrery }\IeC {\cyrishrt } \IeC {\cyrr }\IeC {\cyro }\IeC {\cyrb }\IeC {\cyro }\IeC {\cyrt }''}{8}{subsection.1.3.2}}
\@writefile{toc}{\contentsline {subsection}{\numberline {1.3.3}\IeC {\CYRT }\IeC {\cyrr }\IeC {\cyre }\IeC {\cyrb }\IeC {\cyro }\IeC {\cyrv }\IeC {\cyra }\IeC {\cyrn }\IeC {\cyri }\IeC {\cyrya } \IeC {\cyrk } \IeC {\cyrn }\IeC {\cyra }\IeC {\cyrd }\IeC {\cyryo }\IeC {\cyrzh }\IeC {\cyrn }\IeC {\cyro }\IeC {\cyrs }\IeC {\cyrt }\IeC {\cyri }}{9}{subsection.1.3.3}}
\FN@pp@footnotehinttrue 
\@setckpt{20-analysis}{
\setcounter{page}{10}
\setcounter{equation}{0}
\setcounter{enumi}{2}
\setcounter{enumii}{0}
\setcounter{enumiii}{0}
\setcounter{enumiv}{0}
\setcounter{footnote}{0}
\setcounter{mpfootnote}{0}
\setcounter{totalpage}{0}
\setcounter{totaltable}{0}
\setcounter{totalfigure}{0}
\setcounter{totalbib}{0}
\setcounter{chapter}{1}
\setcounter{section}{3}
\setcounter{subsection}{3}
\setcounter{subsubsection}{0}
\setcounter{parentequation}{0}
\setcounter{ContinuedFloat}{0}
\setcounter{figure}{0}
\setcounter{table}{0}
\setcounter{LT@tables}{0}
\setcounter{LT@chunks}{0}
\setcounter{pp@next@reset}{1}
\setcounter{@fnserial}{0}
\setcounter{Item}{20}
\setcounter{Hfootnote}{0}
\setcounter{bookmark@seq@number}{8}
\setcounter{KVtest}{0}
\setcounter{subfigure}{0}
\setcounter{subfigure@save}{0}
\setcounter{lofdepth}{1}
\setcounter{subtable}{0}
\setcounter{subtable@save}{0}
\setcounter{SC@C}{0}
\setcounter{preinst}{0}
\setcounter{instnum}{0}
\setcounter{threadnum}{0}
\setcounter{seqlevel}{0}
\setcounter{callevel}{0}
\setcounter{callselflevel}{0}
\setcounter{blocklevel}{0}
\setcounter{lstnumber}{1}
\setcounter{section@level}{2}
\setcounter{lstlisting}{0}
}
