\relax 
\FN@pp@footnotehinttrue 
\@writefile{toc}{\contentsline {chapter}{\numberline {2}\IeC {\CYRK }\IeC {\cyro }\IeC {\cyrn }\IeC {\cyrs }\IeC {\cyrt }\IeC {\cyrr }\IeC {\cyru }\IeC {\cyrk }\IeC {\cyrt }\IeC {\cyro }\IeC {\cyrr }\IeC {\cyrs }\IeC {\cyrk }\IeC {\cyri }\IeC {\cyrishrt } \IeC {\cyrr }\IeC {\cyra }\IeC {\cyrz }\IeC {\cyrd }\IeC {\cyre }\IeC {\cyrl }}{10}{chapter.2}}
\newlabel{cha:design}{{2}{10}{Конструкторский раздел\relax }{chapter.2}{}}
\@writefile{toc}{\contentsline {section}{\numberline {2.1}\IeC {\CYRA }\IeC {\cyrr }\IeC {\cyrh }\IeC {\cyri }\IeC {\cyrt }\IeC {\cyre }\IeC {\cyrk }\IeC {\cyrt }\IeC {\cyru }\IeC {\cyrr }\IeC {\cyra } \IeC {\cyrs }\IeC {\cyri }\IeC {\cyrs }\IeC {\cyrt }\IeC {\cyre }\IeC {\cyrm }\IeC {\cyrery } \IeC {\cyrp }\IeC {\cyro }\IeC {\cyri }\IeC {\cyrs }\IeC {\cyrk }\IeC {\cyra } \IeC {\cyri }\IeC {\cyrz }\IeC {\cyro }\IeC {\cyrb }\IeC {\cyrr }\IeC {\cyra }\IeC {\cyrzh }\IeC {\cyre }\IeC {\cyrn }\IeC {\cyri }\IeC {\cyrishrt } \IeC {\cyrp }\IeC {\cyro } \IeC {\cyrs }\IeC {\cyro }\IeC {\cyrd }\IeC {\cyre }\IeC {\cyrr }\IeC {\cyrzh }\IeC {\cyra }\IeC {\cyrn }\IeC {\cyri }\IeC {\cyryu }}{10}{section.2.1}}
\@writefile{toc}{\contentsline {subsection}{\numberline {2.1.1}\IeC {\CYRS }\IeC {\cyrc }\IeC {\cyre }\IeC {\cyrn }\IeC {\cyra }\IeC {\cyrr }\IeC {\cyri }\IeC {\cyrishrt } \IeC {\cyrr }\IeC {\cyra }\IeC {\cyrb }\IeC {\cyro }\IeC {\cyrt }\IeC {\cyrery } \IeC {\cyrp }\IeC {\cyro }\IeC {\cyrd }\IeC {\cyrs }\IeC {\cyri }\IeC {\cyrs }\IeC {\cyrt }\IeC {\cyre }\IeC {\cyrm }\IeC {\cyrery } ``\IeC {\CYRP }\IeC {\cyro }\IeC {\cyri }\IeC {\cyrs }\IeC {\cyrk }\IeC {\cyro }\IeC {\cyrv }\IeC {\cyrery }\IeC {\cyrishrt } \IeC {\cyrr }\IeC {\cyro }\IeC {\cyrb }\IeC {\cyro }\IeC {\cyrt }''}{10}{subsection.2.1.1}}
\@writefile{lol}{\contentsline {lstlisting}{\numberline {2.1}\IeC {\CYRO }\IeC {\cyrs }\IeC {\cyrn }\IeC {\cyro }\IeC {\cyrv }\IeC {\cyrn }\IeC {\cyrery }\IeC {\cyre } \IeC {\cyrd }\IeC {\cyre }\IeC {\cyrishrt }\IeC {\cyrs }\IeC {\cyrt }\IeC {\cyrv }\IeC {\cyri }\IeC {\cyrya } \IeC {\cyrp }\IeC {\cyro }\IeC {\cyri }\IeC {\cyrs }\IeC {\cyrk }\IeC {\cyro }\IeC {\cyrv }\IeC {\cyro }\IeC {\cyrg }\IeC {\cyro } \IeC {\cyrr }\IeC {\cyro }\IeC {\cyrb }\IeC {\cyro }\IeC {\cyrt }\IeC {\cyra }}{10}{lstlisting.2.1}}
\newlabel{algo:crawler}{{2.1.1}{11}{Сценарий работы подсистемы ``Поисковый робот''\relax }{lstnumber.2.1.34}{}}
\@writefile{toc}{\contentsline {section}{\numberline {2.2}\IeC {\CYRV }\IeC {\cyrz }\IeC {\cyra }\IeC {\cyrishrt }\IeC {\cyrm }\IeC {\cyro }\IeC {\cyrd }\IeC {\cyre }\IeC {\cyrishrt }\IeC {\cyrs }\IeC {\cyrt }\IeC {\cyrv }\IeC {\cyri }\IeC {\cyre } \IeC {\cyro }\IeC {\cyrt }\IeC {\cyrd }\IeC {\cyre }\IeC {\cyrl }\IeC {\cyrsftsn }\IeC {\cyrn }\IeC {\cyrery }\IeC {\cyrh } \IeC {\cyrch }\IeC {\cyra }\IeC {\cyrs }\IeC {\cyrt }\IeC {\cyre }\IeC {\cyrishrt } \IeC {\cyrp }\IeC {\cyro }\IeC {\cyrd }\IeC {\cyrs }\IeC {\cyri }\IeC {\cyrs }\IeC {\cyrt }\IeC {\cyre }\IeC {\cyrm }}{11}{section.2.2}}
\citation{Karger97consistenthashing}
\@writefile{toc}{\contentsline {subsection}{\numberline {2.2.1}\IeC {\CYRT }\IeC {\cyrr }\IeC {\cyre }\IeC {\cyrb }\IeC {\cyro }\IeC {\cyrv }\IeC {\cyra }\IeC {\cyrn }\IeC {\cyri }\IeC {\cyrya } \IeC {\cyrk } \IeC {\cyrs }\IeC {\cyrt }\IeC {\cyrr }\IeC {\cyru }\IeC {\cyrk }\IeC {\cyrt }\IeC {\cyru }\IeC {\cyrr }\IeC {\cyra }\IeC {\cyrm } \IeC {\cyrd }\IeC {\cyra }\IeC {\cyrn }\IeC {\cyrn }\IeC {\cyrery }\IeC {\cyrh } \IeC {\cyrp }\IeC {\cyre }\IeC {\cyrr }\IeC {\cyre }\IeC {\cyrd }\IeC {\cyra }\IeC {\cyrv }\IeC {\cyra }\IeC {\cyre }\IeC {\cyrm }\IeC {\cyrery }\IeC {\cyrh } \IeC {\cyrm }\IeC {\cyre }\IeC {\cyrzh }\IeC {\cyrd }\IeC {\cyru } \IeC {\cyru }\IeC {\cyrz }\IeC {\cyrl }\IeC {\cyra }\IeC {\cyrm }\IeC {\cyri } \IeC {\cyrp }\IeC {\cyro }\IeC {\cyrd }\IeC {\cyrs }\IeC {\cyri }\IeC {\cyrs }\IeC {\cyrt }\IeC {\cyre }\IeC {\cyrm }\IeC {\cyrery }}{12}{subsection.2.2.1}}
\@writefile{toc}{\contentsline {section}{\numberline {2.3}\IeC {\CYRO }\IeC {\cyrp }\IeC {\cyrr }\IeC {\cyre }\IeC {\cyrd }\IeC {\cyre }\IeC {\cyrl }\IeC {\cyre }\IeC {\cyrn }\IeC {\cyri }\IeC {\cyre } \IeC {\cyro }\IeC {\cyrt }\IeC {\cyrv }\IeC {\cyre }\IeC {\cyrt }\IeC {\cyrs }\IeC {\cyrt }\IeC {\cyrv }\IeC {\cyre }\IeC {\cyrn }\IeC {\cyrn }\IeC {\cyro }\IeC {\cyrg }\IeC {\cyro } \IeC {\cyrz }\IeC {\cyra } URL-\IeC {\cyra }\IeC {\cyrd }\IeC {\cyrr }\IeC {\cyre }\IeC {\cyrs } \IeC {\cyrp }\IeC {\cyro }\IeC {\cyri }\IeC {\cyrs }\IeC {\cyrk }\IeC {\cyro }\IeC {\cyrv }\IeC {\cyro }\IeC {\cyrg }\IeC {\cyro } \IeC {\cyrr }\IeC {\cyro }\IeC {\cyrb }\IeC {\cyro }\IeC {\cyrt }\IeC {\cyra }}{12}{section.2.3}}
\newlabel{sec:decision_rule}{{2.3}{12}{Определение ответственного за URL-адрес поискового робота\relax }{section.2.3}{}}
\providecommand*\caption@xref[2]{\@setref\relax\@undefined{#1}}
\newlabel{fig:consistent_hashing_1}{{2.1a}{13}{Subfigure 2 2.1a\relax }{subfigure.2.1.1}{}}
\newlabel{sub@fig:consistent_hashing_1}{{(a)}{a}{Subfigure 2 2.1a\relax }{subfigure.2.1.1}{}}
\newlabel{fig:consistent_hashing_2}{{2.1b}{13}{Subfigure 2 2.1b\relax }{subfigure.2.1.2}{}}
\newlabel{sub@fig:consistent_hashing_2}{{(b)}{b}{Subfigure 2 2.1b\relax }{subfigure.2.1.2}{}}
\@writefile{lof}{\contentsline {figure}{\numberline {2.1}{\ignorespaces \relax \fontsize  {10.95}{13.6}\selectfont  \abovedisplayskip 11\p@ plus3\p@ minus6\p@ \abovedisplayshortskip \z@ plus3\p@ \belowdisplayshortskip 6.5\p@ plus3.5\p@ minus3\p@ \def \itemsep 0mm\relax \topsep 1mm\relax \partopsep 0mm\relax \parsep 1mm\relax \leftmargin 0mm\relax \itemindent \GostItemIndent \relax \labelsep 2\GostItemGap \relax {\leftmargin \leftmargini \topsep 9\p@ plus3\p@ minus5\p@ \parsep 4.5\p@ plus2\p@ minus\p@ \itemsep \parsep }\belowdisplayskip \abovedisplayskip \IeC {\CYRU }\IeC {\cyrs }\IeC {\cyrt }\IeC {\cyro }\IeC {\cyrishrt }\IeC {\cyrch }\IeC {\cyri }\IeC {\cyrv }\IeC {\cyro }\IeC {\cyre } \IeC {\cyrh }\IeC {\cyrerev }\IeC {\cyrsh }\IeC {\cyri }\IeC {\cyrr }\IeC {\cyro }\IeC {\cyrv }\IeC {\cyra }\IeC {\cyrn }\IeC {\cyri }\IeC {\cyre }. \IeC {\CYRU }\IeC {\cyrz }\IeC {\cyrl }\IeC {\cyrery } \IeC {\cyro }\IeC {\cyrb }\IeC {\cyro }\IeC {\cyrz }\IeC {\cyrn }\IeC {\cyra }\IeC {\cyrch }\IeC {\cyre }\IeC {\cyrn }\IeC {\cyrery } \IeC {\cyrk }\IeC {\cyrr }\IeC {\cyra }\IeC {\cyrs }\IeC {\cyrn }\IeC {\cyrery }\IeC {\cyrm }\IeC {\cyri } \IeC {\cyrt }\IeC {\cyro }\IeC {\cyrch }\IeC {\cyrk }\IeC {\cyra }\IeC {\cyrm }\IeC {\cyri } \IeC {\cyri } \IeC {\cyrp }\IeC {\cyro }\IeC {\cyrd }\IeC {\cyrp }\IeC {\cyri }\IeC {\cyrs }\IeC {\cyra }\IeC {\cyrn }\IeC {\cyrery } \IeC {\cyrz }\IeC {\cyra }\IeC {\cyrg }\IeC {\cyrl }\IeC {\cyra }\IeC {\cyrv }\IeC {\cyrn }\IeC {\cyrery }\IeC {\cyrm }\IeC {\cyri } \IeC {\cyrl }\IeC {\cyra }\IeC {\cyrt }\IeC {\cyri }\IeC {\cyrn }\IeC {\cyrs }\IeC {\cyrk }\IeC {\cyri }\IeC {\cyrm }\IeC {\cyri } \IeC {\cyrb }\IeC {\cyru }\IeC {\cyrk }\IeC {\cyrv }\IeC {\cyra }\IeC {\cyrm }\IeC {\cyri }; URL-\IeC {\cyra }\IeC {\cyrd }\IeC {\cyrr }\IeC {\cyre }\IeC {\cyrs }\IeC {\cyra } \IeC {\cyro }\IeC {\cyrb }\IeC {\cyro }\IeC {\cyrz }\IeC {\cyrn }\IeC {\cyra }\IeC {\cyrch }\IeC {\cyre }\IeC {\cyrn }\IeC {\cyrery } \IeC {\cyrs }\IeC {\cyri }\IeC {\cyrn }\IeC {\cyri }\IeC {\cyrm }\IeC {\cyri } \IeC {\cyrt }\IeC {\cyro }\IeC {\cyrch }\IeC {\cyrk }\IeC {\cyra }\IeC {\cyrm }\IeC {\cyri } \IeC {\cyri } \IeC {\cyrp }\IeC {\cyro }\IeC {\cyrd }\IeC {\cyrp }\IeC {\cyri }\IeC {\cyrs }\IeC {\cyra }\IeC {\cyrn }\IeC {\cyrery } \IeC {\cyrc }\IeC {\cyri }\IeC {\cyrf }\IeC {\cyrr }\IeC {\cyra }\IeC {\cyrm }\IeC {\cyri }. (a)~\IeC {\cyrn }\IeC {\cyra }\IeC {\cyrch }\IeC {\cyra }\IeC {\cyrl }\IeC {\cyrsftsn }\IeC {\cyrn }\IeC {\cyra }\IeC {\cyrya } \IeC {\cyrk }\IeC {\cyro }\IeC {\cyrn }\IeC {\cyrf }\IeC {\cyri }\IeC {\cyrg }\IeC {\cyru }\IeC {\cyrr }\IeC {\cyra }\IeC {\cyrc }\IeC {\cyri }\IeC {\cyrya } \IeC {\cyrg }\IeC {\cyrr }\IeC {\cyru }\IeC {\cyrp }\IeC {\cyrp }\IeC {\cyrery }. (b)~\IeC {\cyrk }\IeC {\cyro }\IeC {\cyrn }\IeC {\cyrf }\IeC {\cyri }\IeC {\cyrg }\IeC {\cyru }\IeC {\cyrr }\IeC {\cyra }\IeC {\cyrc }\IeC {\cyri }\IeC {\cyrya } \IeC {\cyrg }\IeC {\cyrr }\IeC {\cyru }\IeC {\cyrp }\IeC {\cyrp }\IeC {\cyrery } \IeC {\cyrp }\IeC {\cyro }\IeC {\cyrs }\IeC {\cyrl }\IeC {\cyre } \IeC {\cyrv }\IeC {\cyrery }\IeC {\cyrh }\IeC {\cyro }\IeC {\cyrd }\IeC {\cyra } \IeC {\cyri }\IeC {\cyrz } \IeC {\cyrn }\IeC {\cyre }\IeC {\cyryo } \IeC {\cyro }\IeC {\cyrd }\IeC {\cyrn }\IeC {\cyro }\IeC {\cyrg }\IeC {\cyro } \IeC {\cyru }\IeC {\cyrz }\IeC {\cyrl }\IeC {\cyra } \IeC {\cyri } \IeC {\cyrp }\IeC {\cyro }\IeC {\cyrya }\IeC {\cyrv }\IeC {\cyrl }\IeC {\cyre }\IeC {\cyrn }\IeC {\cyri }\IeC {\cyrya } \IeC {\cyrn }\IeC {\cyro }\IeC {\cyrv }\IeC {\cyro }\IeC {\cyrg }\IeC {\cyro }.\relax }}{13}{figure.caption.7}}
\@writefile{lof}{\contentsline {subfigure}{\numberline{(a)}{\ignorespaces {}}}{13}{subfigure.2.1.1}}
\@writefile{lof}{\contentsline {subfigure}{\numberline{(b)}{\ignorespaces {}}}{13}{subfigure.2.1.2}}
\newlabel{fig:consistent_hashing}{{2.1}{13}{\small Устойчивое хэширование. Узлы обозначены красными точками и подписаны заглавными латинскими буквами; URL-адреса обозначены синими точками и подписаны цифрами. (a)~начальная конфигурация группы. (b)~конфигурация группы после выхода из неё одного узла и появления нового.\relax \relax }{figure.caption.7}{}}
\FN@pp@footnotehinttrue 
\@setckpt{30-design}{
\setcounter{page}{14}
\setcounter{equation}{0}
\setcounter{enumi}{3}
\setcounter{enumii}{0}
\setcounter{enumiii}{0}
\setcounter{enumiv}{0}
\setcounter{footnote}{0}
\setcounter{mpfootnote}{0}
\setcounter{totalpage}{0}
\setcounter{totaltable}{0}
\setcounter{totalfigure}{0}
\setcounter{totalbib}{0}
\setcounter{chapter}{2}
\setcounter{section}{3}
\setcounter{subsection}{0}
\setcounter{subsubsection}{0}
\setcounter{parentequation}{0}
\setcounter{ContinuedFloat}{0}
\setcounter{figure}{1}
\setcounter{table}{0}
\setcounter{LT@tables}{0}
\setcounter{LT@chunks}{0}
\setcounter{pp@next@reset}{1}
\setcounter{@fnserial}{0}
\setcounter{Item}{26}
\setcounter{Hfootnote}{0}
\setcounter{bookmark@seq@number}{14}
\setcounter{KVtest}{0}
\setcounter{subfigure}{0}
\setcounter{subfigure@save}{2}
\setcounter{lofdepth}{1}
\setcounter{subtable}{0}
\setcounter{subtable@save}{0}
\setcounter{SC@C}{0}
\setcounter{preinst}{0}
\setcounter{instnum}{0}
\setcounter{threadnum}{0}
\setcounter{seqlevel}{0}
\setcounter{callevel}{0}
\setcounter{callselflevel}{0}
\setcounter{blocklevel}{0}
\setcounter{lstnumber}{35}
\setcounter{section@level}{1}
\setcounter{lstlisting}{1}
}
