\relax 
\bibstyle{gost780u}
\bibdata{rpz}
\bibcite{Karger97consistenthashing}{1}
\bibcite{makkonel}{2}
\bibcite{castillo}{3}
\bibcite{saxena:tarantula}{4}
\bibcite{Lee:2009:ISB:1541822.1541823}{5}
\bibcite{ilprints361}{6}
\bibcite{Castillo04schedulingalgorithms}{7}
\bibcite{Mohr_Stack_Ranitovic_Avery_Kimpton_2004}{8}
\bibcite{Exposto:2008:EPS:1484630.1484686}{9}
\bibcite{Koht-Arsa_Sanguanpong_2002}{10}
\bibcite{Shkapenyuk02designand}{11}
\bibcite{yong_lee:scrawler}{12}
\bibcite{Boldi03ubicrawler:a}{13}
\FN@pp@footnotehinttrue 
\@writefile{toc}{\contentsline {chapter}{\CYRS \cyrp \cyri \cyrs \cyro \cyrk ~ \cyri \cyrs \cyrp \cyro \cyrl \cyrsftsn \cyrz \cyro \cyrv \cyra \cyrn \cyrn \cyrery \cyrh ~ \cyri \cyrs \cyrt \cyro \cyrch \cyrn \cyri \cyrk \cyro \cyrv }{19}{section*.9}}
\bibcite{Heydon99mercator:a}{14}
\bibcite{Bruno02ubicrawler:a}{15}
\citation{*}
\FN@pp@footnotehinttrue 
\@setckpt{81-biblio}{
\setcounter{page}{21}
\setcounter{equation}{0}
\setcounter{enumi}{3}
\setcounter{enumii}{0}
\setcounter{enumiii}{0}
\setcounter{enumiv}{15}
\setcounter{footnote}{0}
\setcounter{mpfootnote}{0}
\setcounter{totalpage}{0}
\setcounter{totaltable}{0}
\setcounter{totalfigure}{1}
\setcounter{totalbib}{15}
\setcounter{chapter}{3}
\setcounter{section}{5}
\setcounter{subsection}{0}
\setcounter{subsubsection}{0}
\setcounter{parentequation}{0}
\setcounter{ContinuedFloat}{0}
\setcounter{figure}{0}
\setcounter{table}{0}
\setcounter{LT@tables}{0}
\setcounter{LT@chunks}{0}
\setcounter{pp@next@reset}{1}
\setcounter{@fnserial}{0}
\setcounter{Item}{65}
\setcounter{Hfootnote}{0}
\setcounter{bookmark@seq@number}{22}
\setcounter{KVtest}{0}
\setcounter{subfigure}{0}
\setcounter{subfigure@save}{2}
\setcounter{lofdepth}{1}
\setcounter{subtable}{0}
\setcounter{subtable@save}{0}
\setcounter{SC@C}{0}
\setcounter{preinst}{0}
\setcounter{instnum}{0}
\setcounter{threadnum}{0}
\setcounter{seqlevel}{0}
\setcounter{callevel}{0}
\setcounter{callselflevel}{0}
\setcounter{blocklevel}{0}
\setcounter{lstnumber}{35}
\setcounter{section@level}{0}
\setcounter{lstlisting}{0}
}
