=== c1

*** С буферизацией по умолчанию

c1:~# ./nagle default 10.40.0.2 9 -1 30

c2:~# tcpdump -ni eth0 tcp
tcpdump: verbose output suppressed, use -v or -vv for full protocol decode
listening on eth0, link-type EN10MB (Ethernet), capture size 96 bytes
10:39:14.904766 IP 10.10.0.2.45429 > 10.40.0.2.9: S 2478867401:2478867401(0) win 5840 <mss 1460,sackOK,timestamp 429004 0,nop,wscale 1>
10:39:15.104302 IP 10.40.0.2.9 > 10.10.0.2.45429: S 2485012166:2485012166(0) ack 2478867402 win 5792 <mss 1460,sackOK,timestamp 424243 429004,nop,wscale 1>
10:39:15.104610 IP 10.10.0.2.45429 > 10.40.0.2.9: . ack 1 win 2920 <nop,nop,timestamp 429026 424243>
10:39:15.109729 IP 10.10.0.2.45429 > 10.40.0.2.9: P 1:101(100) ack 1 win 2920 <nop,nop,timestamp 429026 424243>
10:39:15.109890 IP 10.10.0.2.45429 > 10.40.0.2.9: . 101:1549(1448) ack 1 win 2920 <nop,nop,timestamp 429026 424243>
10:39:15.109897 IP 10.10.0.2.45429 > 10.40.0.2.9: . 1549:2997(1448) ack 1 win 2920 <nop,nop,timestamp 429026 424243>
10:39:15.109905 IP 10.10.0.2.45429 > 10.40.0.2.9: FP 2997:3001(4) ack 1 win 2920 <nop,nop,timestamp 429026 424243>
10:39:15.314343 IP 10.40.0.2.9 > 10.10.0.2.45429: . ack 101 win 2896 <nop,nop,timestamp 424264 429026>
10:39:15.314369 IP 10.40.0.2.9 > 10.10.0.2.45429: . ack 1549 win 4344 <nop,nop,timestamp 424264 429026>
10:39:15.314381 IP 10.40.0.2.9 > 10.10.0.2.45429: . ack 2997 win 5792 <nop,nop,timestamp 424264 429026>
10:39:15.324259 IP 10.40.0.2.9 > 10.10.0.2.45429: F 1:1(0) ack 3002 win 5792 <nop,nop,timestamp 424264 429026>
10:39:15.324495 IP 10.10.0.2.45429 > 10.40.0.2.9: . ack 2 win 2920 <nop,nop,timestamp 429048 424264>


*** Буферизация по Нейглу

c1:~# ./nagle default 10.40.0.2 9 0 30

c2:~# tcpdump -ni eth0 tcp
tcpdump: verbose output suppressed, use -v or -vv for full protocol decode
listening on eth0, link-type EN10MB (Ethernet), capture size 96 bytes
10:40:48.466055 IP 10.10.0.2.45430 > 10.40.0.2.9: S 3935338902:3935338902(0) win 5840 <mss 1460,sackOK,timestamp 438360 0,nop,wscale 1>
10:40:48.674362 IP 10.40.0.2.9 > 10.10.0.2.45430: S 3941896505:3941896505(0) ack 3935338903 win 5792 <mss 1460,sackOK,timestamp 433600 438360,nop,wscale 1>
10:40:48.675045 IP 10.10.0.2.45430 > 10.40.0.2.9: . ack 1 win 2920 <nop,nop,timestamp 438383 433600>
10:40:48.675050 IP 10.10.0.2.45430 > 10.40.0.2.9: P 1:101(100) ack 1 win 2920 <nop,nop,timestamp 438383 433600>
10:40:48.685017 IP 10.10.0.2.45430 > 10.40.0.2.9: . 101:1549(1448) ack 1 win 2920 <nop,nop,timestamp 438385 433600>
10:40:48.884282 IP 10.40.0.2.9 > 10.10.0.2.45430: . ack 101 win 2896 <nop,nop,timestamp 433621 438383>
10:40:48.884542 IP 10.10.0.2.45430 > 10.40.0.2.9: . 1549:2997(1448) ack 1 win 2920 <nop,nop,timestamp 438404 433621>
10:40:48.884548 IP 10.10.0.2.45430 > 10.40.0.2.9: FP 2997:3001(4) ack 1 win 2920 <nop,nop,timestamp 438404 433621>
10:40:48.899323 IP 10.40.0.2.9 > 10.10.0.2.45430: . ack 1549 win 4344 <nop,nop,timestamp 433621 438385>
10:40:49.094345 IP 10.40.0.2.9 > 10.10.0.2.45430: . ack 2997 win 5792 <nop,nop,timestamp 433642 438404>
10:40:49.094371 IP 10.40.0.2.9 > 10.10.0.2.45430: F 1:1(0) ack 3002 win 5792 <nop,nop,timestamp 433642 438404>
10:40:49.094639 IP 10.10.0.2.45430 > 10.40.0.2.9: . ack 2 win 2920 <nop,nop,timestamp 438425 433642>


*** Нейгл работает иногда

c1:~# ./nagle default 10.40.0.2 9 9 30

c2:~# tcpdump -ni eth0 tcp
tcpdump: verbose output suppressed, use -v or -vv for full protocol decode
listening on eth0, link-type EN10MB (Ethernet), capture size 96 bytes
10:49:37.849257 IP 10.10.0.2.33019 > 10.40.0.2.9: S 3654866810:3654866810(0) win 5840 <mss 1460,sackOK,timestamp 491298 0,nop,wscale 1>
10:49:38.054265 IP 10.40.0.2.9 > 10.10.0.2.33019: S 3657764234:3657764234(0) ack 3654866811 win 5792 <mss 1460,sackOK,timestamp 486538 491298,nop,wscale 1>
10:49:38.054835 IP 10.10.0.2.33019 > 10.40.0.2.9: . ack 1 win 2920 <nop,nop,timestamp 491321 486538>
10:49:38.054841 IP 10.10.0.2.33019 > 10.40.0.2.9: P 1:101(100) ack 1 win 2920 <nop,nop,timestamp 491321 486538>
10:49:38.209720 IP 10.10.0.2.33019 > 10.40.0.2.9: . 101:1549(1448) ack 1 win 2920 <nop,nop,timestamp 491337 486538>
10:49:38.264180 IP 10.40.0.2.9 > 10.10.0.2.33019: . ack 101 win 2896 <nop,nop,timestamp 486559 491321>
10:49:38.264335 IP 10.10.0.2.33019 > 10.40.0.2.9: P 1549:2101(552) ack 1 win 2920 <nop,nop,timestamp 491342 486559>
10:49:38.369795 IP 10.10.0.2.33019 > 10.40.0.2.9: FP 2101:3001(900) ack 1 win 2920 <nop,nop,timestamp 491353 486559>
10:49:38.414292 IP 10.40.0.2.9 > 10.10.0.2.33019: . ack 1549 win 4344 <nop,nop,timestamp 486574 491337>
10:49:38.474242 IP 10.40.0.2.9 > 10.10.0.2.33019: . ack 2101 win 5792 <nop,nop,timestamp 486580 491342>
10:49:38.574278 IP 10.40.0.2.9 > 10.10.0.2.33019: F 1:1(0) ack 3002 win 7240 <nop,nop,timestamp 486590 491353>
10:49:38.574582 IP 10.10.0.2.33019 > 10.40.0.2.9: . ack 2 win 2920 <nop,nop,timestamp 491373 486590>


*** Нейгл не работает

c1:~# ./nagle default 10.40.0.2 9 10 30

c2:~# tcpdump -ni eth0 tcp
tcpdump: verbose output suppressed, use -v or -vv for full protocol decode
listening on eth0, link-type EN10MB (Ethernet), capture size 96 bytes
10:51:16.451153 IP 10.10.0.2.33020 > 10.40.0.2.9: S 894041801:894041801(0) win 5840 <mss 1460,sackOK,timestamp 501158 0,nop,wscale 1>
10:51:16.654443 IP 10.40.0.2.9 > 10.10.0.2.33020: S 899939556:899939556(0) ack 894041802 win 5792 <mss 1460,sackOK,timestamp 496398 501158,nop,wscale 1>
10:51:16.655108 IP 10.10.0.2.33020 > 10.40.0.2.9: . ack 1 win 2920 <nop,nop,timestamp 501181 496398>
10:51:16.655114 IP 10.10.0.2.33020 > 10.40.0.2.9: P 1:101(100) ack 1 win 2920 <nop,nop,timestamp 501181 496398>
10:51:16.864298 IP 10.40.0.2.9 > 10.10.0.2.33020: . ack 101 win 2896 <nop,nop,timestamp 496419 501181>
10:51:16.864584 IP 10.10.0.2.33020 > 10.40.0.2.9: P 101:1101(1000) ack 1 win 2920 <nop,nop,timestamp 501202 496419>
10:51:17.074436 IP 10.40.0.2.9 > 10.10.0.2.33020: . ack 1101 win 3896 <nop,nop,timestamp 496440 501202>
10:51:17.074748 IP 10.10.0.2.33020 > 10.40.0.2.9: P 1101:2301(1200) ack 1 win 2920 <nop,nop,timestamp 501223 496440>
10:51:17.220127 IP 10.10.0.2.33020 > 10.40.0.2.9: FP 2301:3001(700) ack 1 win 2920 <nop,nop,timestamp 501238 496440>
10:51:17.284286 IP 10.40.0.2.9 > 10.10.0.2.33020: . ack 2301 win 5096 <nop,nop,timestamp 496461 501223>
10:51:17.424306 IP 10.40.0.2.9 > 10.10.0.2.33020: F 1:1(0) ack 3002 win 6296 <nop,nop,timestamp 496475 501238>
10:51:17.424561 IP 10.10.0.2.33020 > 10.40.0.2.9: . ack 2 win 2920 <nop,nop,timestamp 501258 496475>

c1:~# ./nagle default 10.40.0.2 9 200 30

c2:~# tcpdump -ni eth0 tcp
tcpdump: verbose output suppressed, use -v or -vv for full protocol decode
listening on eth0, link-type EN10MB (Ethernet), capture size 96 bytes
11:21:59.805580 IP 10.10.0.2.59906 > 10.40.0.2.9: S 4029382171:4029382171(0) win 5840 <mss 1460,sackOK,timestamp 685495 0,nop,wscale 1>
11:22:00.014360 IP 10.40.0.2.9 > 10.10.0.2.59906: S 4037631622:4037631622(0) ack 4029382172 win 5792 <mss 1460,sackOK,timestamp 680734 685495,nop,wscale 1>
11:22:00.014976 IP 10.10.0.2.59906 > 10.40.0.2.9: . ack 1 win 2920 <nop,nop,timestamp 685517 680734>
11:22:00.014981 IP 10.10.0.2.59906 > 10.40.0.2.9: P 1:101(100) ack 1 win 2920 <nop,nop,timestamp 685517 680734>
11:22:00.224302 IP 10.40.0.2.9 > 10.10.0.2.59906: . ack 101 win 2896 <nop,nop,timestamp 680755 685517>
11:22:00.224570 IP 10.10.0.2.59906 > 10.40.0.2.9: P 101:201(100) ack 1 win 2920 <nop,nop,timestamp 685538 680755>
11:22:00.434218 IP 10.40.0.2.9 > 10.10.0.2.59906: . ack 201 win 2896 <nop,nop,timestamp 680776 685538>
11:22:00.434341 IP 10.10.0.2.59906 > 10.40.0.2.9: P 201:301(100) ack 1 win 2920 <nop,nop,timestamp 685559 680776>
11:22:00.644174 IP 10.40.0.2.9 > 10.10.0.2.59906: . ack 301 win 2896 <nop,nop,timestamp 680797 685559>
11:22:00.644362 IP 10.10.0.2.59906 > 10.40.0.2.9: P 301:401(100) ack 1 win 2920 <nop,nop,timestamp 685580 680797>
11:22:00.854378 IP 10.40.0.2.9 > 10.10.0.2.59906: . ack 401 win 2896 <nop,nop,timestamp 680818 685580>
11:22:00.854676 IP 10.10.0.2.59906 > 10.40.0.2.9: P 401:501(100) ack 1 win 2920 <nop,nop,timestamp 685601 680818>
11:22:01.064355 IP 10.40.0.2.9 > 10.10.0.2.59906: . ack 501 win 2896 <nop,nop,timestamp 680839 685601>
11:22:01.064630 IP 10.10.0.2.59906 > 10.40.0.2.9: P 501:601(100) ack 1 win 2920 <nop,nop,timestamp 685622 680839>
11:22:01.274342 IP 10.40.0.2.9 > 10.10.0.2.59906: . ack 601 win 2896 <nop,nop,timestamp 680860 685622>
11:22:01.274611 IP 10.10.0.2.59906 > 10.40.0.2.9: P 601:701(100) ack 1 win 2920 <nop,nop,timestamp 685643 680860>
11:22:01.484211 IP 10.40.0.2.9 > 10.10.0.2.59906: . ack 701 win 2896 <nop,nop,timestamp 680881 685643>
11:22:01.484317 IP 10.10.0.2.59906 > 10.40.0.2.9: P 701:801(100) ack 1 win 2920 <nop,nop,timestamp 685664 680881>
11:22:01.694202 IP 10.40.0.2.9 > 10.10.0.2.59906: . ack 801 win 2896 <nop,nop,timestamp 680902 685664>
11:22:01.694298 IP 10.10.0.2.59906 > 10.40.0.2.9: P 801:901(100) ack 1 win 2920 <nop,nop,timestamp 685685 680902>
11:22:01.904293 IP 10.40.0.2.9 > 10.10.0.2.59906: . ack 901 win 2896 <nop,nop,timestamp 680923 685685>
11:22:01.904533 IP 10.10.0.2.59906 > 10.40.0.2.9: P 901:1001(100) ack 1 win 2920 <nop,nop,timestamp 685706 680923>
11:22:02.114206 IP 10.40.0.2.9 > 10.10.0.2.59906: . ack 1001 win 2896 <nop,nop,timestamp 680944 685706>
11:22:02.114321 IP 10.10.0.2.59906 > 10.40.0.2.9: P 1001:1101(100) ack 1 win 2920 <nop,nop,timestamp 685727 680944>
11:22:02.324299 IP 10.40.0.2.9 > 10.10.0.2.59906: . ack 1101 win 2896 <nop,nop,timestamp 680965 685727>
11:22:02.324555 IP 10.10.0.2.59906 > 10.40.0.2.9: P 1101:1201(100) ack 1 win 2920 <nop,nop,timestamp 685748 680965>
11:22:02.534299 IP 10.40.0.2.9 > 10.10.0.2.59906: . ack 1201 win 2896 <nop,nop,timestamp 680986 685748>
11:22:02.534571 IP 10.10.0.2.59906 > 10.40.0.2.9: P 1201:1301(100) ack 1 win 2920 <nop,nop,timestamp 685769 680986>
11:22:02.744341 IP 10.40.0.2.9 > 10.10.0.2.59906: . ack 1301 win 2896 <nop,nop,timestamp 681007 685769>
11:22:02.744608 IP 10.10.0.2.59906 > 10.40.0.2.9: P 1301:1401(100) ack 1 win 2920 <nop,nop,timestamp 685790 681007>
11:22:02.954213 IP 10.40.0.2.9 > 10.10.0.2.59906: . ack 1401 win 2896 <nop,nop,timestamp 681028 685790>
11:22:02.954321 IP 10.10.0.2.59906 > 10.40.0.2.9: P 1401:1501(100) ack 1 win 2920 <nop,nop,timestamp 685811 681028>
11:22:03.164337 IP 10.40.0.2.9 > 10.10.0.2.59906: . ack 1501 win 2896 <nop,nop,timestamp 681049 685811>
11:22:03.164597 IP 10.10.0.2.59906 > 10.40.0.2.9: P 1501:1601(100) ack 1 win 2920 <nop,nop,timestamp 685832 681049>
11:22:03.374329 IP 10.40.0.2.9 > 10.10.0.2.59906: . ack 1601 win 2896 <nop,nop,timestamp 681070 685832>
11:22:03.374598 IP 10.10.0.2.59906 > 10.40.0.2.9: P 1601:1701(100) ack 1 win 2920 <nop,nop,timestamp 685853 681070>
11:22:03.584298 IP 10.40.0.2.9 > 10.10.0.2.59906: . ack 1701 win 2896 <nop,nop,timestamp 681091 685853>
11:22:03.584536 IP 10.10.0.2.59906 > 10.40.0.2.9: P 1701:1801(100) ack 1 win 2920 <nop,nop,timestamp 685874 681091>
11:22:03.794381 IP 10.40.0.2.9 > 10.10.0.2.59906: . ack 1801 win 2896 <nop,nop,timestamp 681112 685874>
11:22:03.794689 IP 10.10.0.2.59906 > 10.40.0.2.9: P 1801:1901(100) ack 1 win 2920 <nop,nop,timestamp 685895 681112>
11:22:04.004225 IP 10.40.0.2.9 > 10.10.0.2.59906: . ack 1901 win 2896 <nop,nop,timestamp 681133 685895>
11:22:04.004398 IP 10.10.0.2.59906 > 10.40.0.2.9: P 1901:2001(100) ack 1 win 2920 <nop,nop,timestamp 685916 681133>
11:22:04.214195 IP 10.40.0.2.9 > 10.10.0.2.59906: . ack 2001 win 2896 <nop,nop,timestamp 681154 685916>
11:22:04.214315 IP 10.10.0.2.59906 > 10.40.0.2.9: P 2001:2101(100) ack 1 win 2920 <nop,nop,timestamp 685937 681154>
11:22:04.424311 IP 10.40.0.2.9 > 10.10.0.2.59906: . ack 2101 win 2896 <nop,nop,timestamp 681175 685937>
11:22:04.424539 IP 10.10.0.2.59906 > 10.40.0.2.9: P 2101:2201(100) ack 1 win 2920 <nop,nop,timestamp 685958 681175>
11:22:04.634349 IP 10.40.0.2.9 > 10.10.0.2.59906: . ack 2201 win 2896 <nop,nop,timestamp 681196 685958>
11:22:04.634627 IP 10.10.0.2.59906 > 10.40.0.2.9: P 2201:2301(100) ack 1 win 2920 <nop,nop,timestamp 685979 681196>
11:22:04.844364 IP 10.40.0.2.9 > 10.10.0.2.59906: . ack 2301 win 2896 <nop,nop,timestamp 681217 685979>
11:22:04.844650 IP 10.10.0.2.59906 > 10.40.0.2.9: P 2301:2401(100) ack 1 win 2920 <nop,nop,timestamp 686000 681217>
11:22:05.054230 IP 10.40.0.2.9 > 10.10.0.2.59906: . ack 2401 win 2896 <nop,nop,timestamp 681238 686000>
11:22:05.054348 IP 10.10.0.2.59906 > 10.40.0.2.9: P 2401:2501(100) ack 1 win 2920 <nop,nop,timestamp 686021 681238>
11:22:05.264346 IP 10.40.0.2.9 > 10.10.0.2.59906: . ack 2501 win 2896 <nop,nop,timestamp 681259 686021>
11:22:05.264618 IP 10.10.0.2.59906 > 10.40.0.2.9: P 2501:2601(100) ack 1 win 2920 <nop,nop,timestamp 686042 681259>
11:22:05.474342 IP 10.40.0.2.9 > 10.10.0.2.59906: . ack 2601 win 2896 <nop,nop,timestamp 681280 686042>
11:22:05.474571 IP 10.10.0.2.59906 > 10.40.0.2.9: P 2601:2701(100) ack 1 win 2920 <nop,nop,timestamp 686063 681280>
11:22:05.684223 IP 10.40.0.2.9 > 10.10.0.2.59906: . ack 2701 win 2896 <nop,nop,timestamp 681301 686063>
11:22:05.684340 IP 10.10.0.2.59906 > 10.40.0.2.9: P 2701:2801(100) ack 1 win 2920 <nop,nop,timestamp 686084 681301>
11:22:05.894387 IP 10.40.0.2.9 > 10.10.0.2.59906: . ack 2801 win 2896 <nop,nop,timestamp 681322 686084>
11:22:05.894693 IP 10.10.0.2.59906 > 10.40.0.2.9: P 2801:2901(100) ack 1 win 2920 <nop,nop,timestamp 686105 681322>
11:22:06.104323 IP 10.40.0.2.9 > 10.10.0.2.59906: . ack 2901 win 2896 <nop,nop,timestamp 681343 686105>
11:22:06.104597 IP 10.10.0.2.59906 > 10.40.0.2.9: P 2901:3001(100) ack 1 win 2920 <nop,nop,timestamp 686126 681343>
11:22:06.309697 IP 10.10.0.2.59906 > 10.40.0.2.9: F 3001:3001(0) ack 1 win 2920 <nop,nop,timestamp 686147 681343>
11:22:06.321090 IP 10.40.0.2.9 > 10.10.0.2.59906: . ack 3001 win 2896 <nop,nop,timestamp 681364 686126>
11:22:06.514312 IP 10.40.0.2.9 > 10.10.0.2.59906: F 1:1(0) ack 3002 win 2896 <nop,nop,timestamp 681384 686147>
11:22:06.514592 IP 10.10.0.2.59906 > 10.40.0.2.9: . ack 2 win 2920 <nop,nop,timestamp 686167 681384>


*** TCP_CORK без буферизации

c1:~# ./nagle cork 10.40.0.2 9 900 30

c2:~# tcpdump -ni eth0 tcp
tcpdump: verbose output suppressed, use -v or -vv for full protocol decode
listening on eth0, link-type EN10MB (Ethernet), capture size 96 bytes
10:57:15.664927 IP 10.10.0.2.47022 > 10.40.0.2.9: S 2231598799:2231598799(0) win 5840 <mss 1460,sackOK,timestamp 537080 0,nop,wscale 1>
10:57:15.874312 IP 10.40.0.2.9 > 10.10.0.2.47022: S 2238336752:2238336752(0) ack 2231598800 win 5792 <mss 1460,sackOK,timestamp 532320 537080,nop,wscale 1>
10:57:15.874938 IP 10.10.0.2.47022 > 10.40.0.2.9: . ack 1 win 2920 <nop,nop,timestamp 537103 532320>
10:57:16.579382 IP 10.10.0.2.47022 > 10.40.0.2.9: P 1:101(100) ack 1 win 2920 <nop,nop,timestamp 537174 532320>
10:57:16.784254 IP 10.40.0.2.9 > 10.10.0.2.47022: . ack 101 win 2896 <nop,nop,timestamp 532411 537174>
10:57:17.479525 IP 10.10.0.2.47022 > 10.40.0.2.9: P 101:201(100) ack 1 win 2920 <nop,nop,timestamp 537264 532411>
10:57:17.684402 IP 10.40.0.2.9 > 10.10.0.2.47022: . ack 201 win 2896 <nop,nop,timestamp 532501 537264>
10:57:18.359460 IP 10.10.0.2.47022 > 10.40.0.2.9: P 201:301(100) ack 1 win 2920 <nop,nop,timestamp 537352 532501>
10:57:18.564360 IP 10.40.0.2.9 > 10.10.0.2.47022: . ack 301 win 2896 <nop,nop,timestamp 532589 537352>
10:57:19.229475 IP 10.10.0.2.47022 > 10.40.0.2.9: P 301:401(100) ack 1 win 2920 <nop,nop,timestamp 537439 532589>
10:57:19.434189 IP 10.40.0.2.9 > 10.10.0.2.47022: . ack 401 win 2896 <nop,nop,timestamp 532676 537439>
10:57:20.109452 IP 10.10.0.2.47022 > 10.40.0.2.9: P 401:501(100) ack 1 win 2920 <nop,nop,timestamp 537527 532676>
10:57:20.314191 IP 10.40.0.2.9 > 10.10.0.2.47022: . ack 501 win 2896 <nop,nop,timestamp 532764 537527>
10:57:20.979474 IP 10.10.0.2.47022 > 10.40.0.2.9: P 501:601(100) ack 1 win 2920 <nop,nop,timestamp 537614 532764>
10:57:21.184380 IP 10.40.0.2.9 > 10.10.0.2.47022: . ack 601 win 2896 <nop,nop,timestamp 532851 537614>
10:57:21.859482 IP 10.10.0.2.47022 > 10.40.0.2.9: P 601:701(100) ack 1 win 2920 <nop,nop,timestamp 537702 532851>
10:57:22.064288 IP 10.40.0.2.9 > 10.10.0.2.47022: . ack 701 win 2896 <nop,nop,timestamp 532939 537702>
10:57:22.749452 IP 10.10.0.2.47022 > 10.40.0.2.9: P 701:801(100) ack 1 win 2920 <nop,nop,timestamp 537791 532939>
10:57:22.954260 IP 10.40.0.2.9 > 10.10.0.2.47022: . ack 801 win 2896 <nop,nop,timestamp 533028 537791>
10:57:23.639506 IP 10.10.0.2.47022 > 10.40.0.2.9: P 801:901(100) ack 1 win 2920 <nop,nop,timestamp 537880 533028>
10:57:23.844356 IP 10.40.0.2.9 > 10.10.0.2.47022: . ack 901 win 2896 <nop,nop,timestamp 533117 537880>
10:57:24.529334 IP 10.10.0.2.47022 > 10.40.0.2.9: P 901:1001(100) ack 1 win 2920 <nop,nop,timestamp 537969 533117>
10:57:24.734220 IP 10.40.0.2.9 > 10.10.0.2.47022: . ack 1001 win 2896 <nop,nop,timestamp 533206 537969>
10:57:25.419514 IP 10.10.0.2.47022 > 10.40.0.2.9: P 1001:1101(100) ack 1 win 2920 <nop,nop,timestamp 538058 533206>
10:57:25.624200 IP 10.40.0.2.9 > 10.10.0.2.47022: . ack 1101 win 2896 <nop,nop,timestamp 533295 538058>
10:57:26.319467 IP 10.10.0.2.47022 > 10.40.0.2.9: P 1101:1201(100) ack 1 win 2920 <nop,nop,timestamp 538148 533295>
10:57:26.524329 IP 10.40.0.2.9 > 10.10.0.2.47022: . ack 1201 win 2896 <nop,nop,timestamp 533385 538148>
10:57:27.219526 IP 10.10.0.2.47022 > 10.40.0.2.9: P 1201:1301(100) ack 1 win 2920 <nop,nop,timestamp 538238 533385>
10:57:27.424191 IP 10.40.0.2.9 > 10.10.0.2.47022: . ack 1301 win 2896 <nop,nop,timestamp 533475 538238>
10:57:28.129432 IP 10.10.0.2.47022 > 10.40.0.2.9: P 1301:1401(100) ack 1 win 2920 <nop,nop,timestamp 538329 533475>
10:57:28.334205 IP 10.40.0.2.9 > 10.10.0.2.47022: . ack 1401 win 2896 <nop,nop,timestamp 533566 538329>
10:57:29.039449 IP 10.10.0.2.47022 > 10.40.0.2.9: P 1401:1501(100) ack 1 win 2920 <nop,nop,timestamp 538420 533566>
10:57:29.244361 IP 10.40.0.2.9 > 10.10.0.2.47022: . ack 1501 win 2896 <nop,nop,timestamp 533657 538420>
10:57:29.949549 IP 10.10.0.2.47022 > 10.40.0.2.9: P 1501:1601(100) ack 1 win 2920 <nop,nop,timestamp 538511 533657>
10:57:30.154326 IP 10.40.0.2.9 > 10.10.0.2.47022: . ack 1601 win 2896 <nop,nop,timestamp 533748 538511>
10:57:30.849516 IP 10.10.0.2.47022 > 10.40.0.2.9: P 1601:1701(100) ack 1 win 2920 <nop,nop,timestamp 538601 533748>
10:57:31.054312 IP 10.40.0.2.9 > 10.10.0.2.47022: . ack 1701 win 2896 <nop,nop,timestamp 533838 538601>
10:57:31.759457 IP 10.10.0.2.47022 > 10.40.0.2.9: P 1701:1801(100) ack 1 win 2920 <nop,nop,timestamp 538692 533838>
10:57:31.964201 IP 10.40.0.2.9 > 10.10.0.2.47022: . ack 1801 win 2896 <nop,nop,timestamp 533929 538692>
10:57:32.669352 IP 10.10.0.2.47022 > 10.40.0.2.9: P 1801:1901(100) ack 1 win 2920 <nop,nop,timestamp 538783 533929>
10:57:32.874298 IP 10.40.0.2.9 > 10.10.0.2.47022: . ack 1901 win 2896 <nop,nop,timestamp 534020 538783>
10:57:33.579480 IP 10.10.0.2.47022 > 10.40.0.2.9: P 1901:2001(100) ack 1 win 2920 <nop,nop,timestamp 538874 534020>
10:57:33.784327 IP 10.40.0.2.9 > 10.10.0.2.47022: . ack 2001 win 2896 <nop,nop,timestamp 534111 538874>
10:57:34.489463 IP 10.10.0.2.47022 > 10.40.0.2.9: P 2001:2101(100) ack 1 win 2920 <nop,nop,timestamp 538965 534111>
10:57:34.694349 IP 10.40.0.2.9 > 10.10.0.2.47022: . ack 2101 win 2896 <nop,nop,timestamp 534201 538965>
10:57:35.399493 IP 10.10.0.2.47022 > 10.40.0.2.9: P 2101:2201(100) ack 1 win 2920 <nop,nop,timestamp 539056 534201>
10:57:35.604334 IP 10.40.0.2.9 > 10.10.0.2.47022: . ack 2201 win 2896 <nop,nop,timestamp 534293 539056>
10:57:36.309321 IP 10.10.0.2.47022 > 10.40.0.2.9: P 2201:2301(100) ack 1 win 2920 <nop,nop,timestamp 539147 534293>
10:57:36.514287 IP 10.40.0.2.9 > 10.10.0.2.47022: . ack 2301 win 2896 <nop,nop,timestamp 534384 539147>
10:57:37.219516 IP 10.10.0.2.47022 > 10.40.0.2.9: P 2301:2401(100) ack 1 win 2920 <nop,nop,timestamp 539238 534384>
10:57:37.424379 IP 10.40.0.2.9 > 10.10.0.2.47022: . ack 2401 win 2896 <nop,nop,timestamp 534475 539238>
10:57:38.129455 IP 10.10.0.2.47022 > 10.40.0.2.9: P 2401:2501(100) ack 1 win 2920 <nop,nop,timestamp 539329 534475>
10:57:38.334178 IP 10.40.0.2.9 > 10.10.0.2.47022: . ack 2501 win 2896 <nop,nop,timestamp 534566 539329>
10:57:39.039412 IP 10.10.0.2.47022 > 10.40.0.2.9: P 2501:2601(100) ack 1 win 2920 <nop,nop,timestamp 539420 534566>
10:57:39.244261 IP 10.40.0.2.9 > 10.10.0.2.47022: . ack 2601 win 2896 <nop,nop,timestamp 534657 539420>
10:57:39.949458 IP 10.10.0.2.47022 > 10.40.0.2.9: P 2601:2701(100) ack 1 win 2920 <nop,nop,timestamp 539511 534657>
10:57:40.154341 IP 10.40.0.2.9 > 10.10.0.2.47022: . ack 2701 win 2896 <nop,nop,timestamp 534748 539511>
10:57:40.859509 IP 10.10.0.2.47022 > 10.40.0.2.9: P 2701:2801(100) ack 1 win 2920 <nop,nop,timestamp 539602 534748>
10:57:41.064194 IP 10.40.0.2.9 > 10.10.0.2.47022: . ack 2801 win 2896 <nop,nop,timestamp 534839 539602>
10:57:41.769424 IP 10.10.0.2.47022 > 10.40.0.2.9: P 2801:2901(100) ack 1 win 2920 <nop,nop,timestamp 539693 534839>
10:57:41.974287 IP 10.40.0.2.9 > 10.10.0.2.47022: . ack 2901 win 2896 <nop,nop,timestamp 534930 539693>
10:57:42.679475 IP 10.10.0.2.47022 > 10.40.0.2.9: P 2901:3001(100) ack 1 win 2920 <nop,nop,timestamp 539784 534930>
10:57:42.884302 IP 10.40.0.2.9 > 10.10.0.2.47022: . ack 3001 win 2896 <nop,nop,timestamp 535021 539784>
10:57:43.159693 IP 10.10.0.2.47022 > 10.40.0.2.9: F 3001:3001(0) ack 1 win 2920 <nop,nop,timestamp 539832 535021>
10:57:43.364384 IP 10.40.0.2.9 > 10.10.0.2.47022: F 1:1(0) ack 3002 win 2896 <nop,nop,timestamp 535069 539832>
10:57:43.364680 IP 10.10.0.2.47022 > 10.40.0.2.9: . ack 2 win 2920 <nop,nop,timestamp 539852 535069>


*** 

c1:~# ./nagle nodelay 10.40.0.2 9 -1 30

c2:~# tcpdump -ni eth0 tcp
tcpdump: verbose output suppressed, use -v or -vv for full protocol decode
listening on eth0, link-type EN10MB (Ethernet), capture size 96 bytes
11:05:40.399087 IP 10.10.0.2.35445 > 10.40.0.2.9: S 1556576888:1556576888(0) win 5840 <mss 1460,sackOK,timestamp 587553 0,nop,wscale 1>
11:05:40.826634 IP 10.40.0.2.9 > 10.10.0.2.35445: S 1570175963:1570175963(0) ack 1556576889 win 5792 <mss 1460,sackOK,timestamp 582815 587553,nop,wscale 1>
11:05:40.827537 IP 10.10.0.2.35445 > 10.40.0.2.9: . ack 1 win 2920 <nop,nop,timestamp 587598 582815>
11:05:40.827543 IP 10.10.0.2.35445 > 10.40.0.2.9: P 1:101(100) ack 1 win 2920 <nop,nop,timestamp 587598 582815>
11:05:40.827547 IP 10.10.0.2.35445 > 10.40.0.2.9: P 101:201(100) ack 1 win 2920 <nop,nop,timestamp 587598 582815>
11:05:40.827551 IP 10.10.0.2.35445 > 10.40.0.2.9: P 201:301(100) ack 1 win 2920 <nop,nop,timestamp 587598 582815>
11:05:41.034354 IP 10.40.0.2.9 > 10.10.0.2.35445: . ack 101 win 2896 <nop,nop,timestamp 582836 587598>
11:05:41.034387 IP 10.40.0.2.9 > 10.10.0.2.35445: . ack 201 win 2896 <nop,nop,timestamp 582836 587598>
11:05:41.034399 IP 10.40.0.2.9 > 10.10.0.2.35445: . ack 301 win 2896 <nop,nop,timestamp 582836 587598>
11:05:41.035379 IP 10.10.0.2.35445 > 10.40.0.2.9: . 301:1749(1448) ack 1 win 2920 <nop,nop,timestamp 587619 582836>
11:05:41.035385 IP 10.10.0.2.35445 > 10.40.0.2.9: FP 1749:3001(1252) ack 1 win 2920 <nop,nop,timestamp 587619 582836>
11:05:41.244240 IP 10.40.0.2.9 > 10.10.0.2.35445: . ack 1749 win 4344 <nop,nop,timestamp 582857 587619>
11:05:41.244257 IP 10.40.0.2.9 > 10.10.0.2.35445: F 1:1(0) ack 3002 win 5792 <nop,nop,timestamp 582857 587619>
11:05:41.244423 IP 10.10.0.2.35445 > 10.40.0.2.9: . ack 2 win 2920 <nop,nop,timestamp 587640 582857>


***

c1:~# ./nagle nodelay 10.40.0.2 9 0 30

c2:~# tcpdump -ni eth0 tcp
tcpdump: verbose output suppressed, use -v or -vv for full protocol decode
listening on eth0, link-type EN10MB (Ethernet), capture size 96 bytes
11:05:54.172758 IP 10.10.0.2.35446 > 10.40.0.2.9: S 1775859734:1775859734(0) win 5840 <mss 1460,sackOK,timestamp 588931 0,nop,wscale 1>
11:05:54.374305 IP 10.40.0.2.9 > 10.10.0.2.35446: S 1788000178:1788000178(0) ack 1775859735 win 5792 <mss 1460,sackOK,timestamp 584170 588931,nop,wscale 1>
11:05:54.374963 IP 10.10.0.2.35446 > 10.40.0.2.9: . ack 1 win 2920 <nop,nop,timestamp 588953 584170>
11:05:54.374968 IP 10.10.0.2.35446 > 10.40.0.2.9: P 1:101(100) ack 1 win 2920 <nop,nop,timestamp 588953 584170>
11:05:54.384795 IP 10.10.0.2.35446 > 10.40.0.2.9: P 101:201(100) ack 1 win 2920 <nop,nop,timestamp 588955 584170>
11:05:54.385080 IP 10.10.0.2.35446 > 10.40.0.2.9: P 201:301(100) ack 1 win 2920 <nop,nop,timestamp 588955 584170>
11:05:54.584323 IP 10.40.0.2.9 > 10.10.0.2.35446: . ack 101 win 2896 <nop,nop,timestamp 584191 588953>
11:05:54.584614 IP 10.10.0.2.35446 > 10.40.0.2.9: . 301:1749(1448) ack 1 win 2920 <nop,nop,timestamp 588974 584191>
11:05:54.584622 IP 10.10.0.2.35446 > 10.40.0.2.9: FP 1749:3001(1252) ack 1 win 2920 <nop,nop,timestamp 588974 584191>
11:05:54.599421 IP 10.40.0.2.9 > 10.10.0.2.35446: . ack 201 win 2896 <nop,nop,timestamp 584191 588955>
11:05:54.599443 IP 10.40.0.2.9 > 10.10.0.2.35446: . ack 301 win 2896 <nop,nop,timestamp 584191 588955>
11:05:54.794325 IP 10.40.0.2.9 > 10.10.0.2.35446: . ack 1749 win 4344 <nop,nop,timestamp 584212 588974>
11:05:54.794355 IP 10.40.0.2.9 > 10.10.0.2.35446: F 1:1(0) ack 3002 win 5792 <nop,nop,timestamp 584212 588974>
11:05:54.794612 IP 10.10.0.2.35446 > 10.40.0.2.9: . ack 2 win 2920 <nop,nop,timestamp 588995 584212>



=== c4

*** С буферизацией по умолчанию

c1:~# ./nagle default 10.30.0.2 9 -1 30

c2:~# tcpdump -ni eth0 tcp
tcpdump: verbose output suppressed, use -v or -vv for full protocol decode
listening on eth0, link-type EN10MB (Ethernet), capture size 96 bytes
11:11:39.425259 IP 10.10.0.2.57352 > 10.30.0.2.9: S 2893277697:2893277697(0) win 5840 <mss 1460,sackOK,timestamp 623456 0,nop,wscale 1>
11:11:39.425459 IP 10.30.0.2.9 > 10.10.0.2.57352: S 2904676492:2904676492(0) ack 2893277698 win 5792 <mss 536,sackOK,timestamp 620032 623456,nop,wscale 1>
11:11:39.426092 IP 10.10.0.2.57352 > 10.30.0.2.9: . ack 1 win 2920 <nop,nop,timestamp 623459 620032>
11:11:39.426736 IP 10.10.0.2.57352 > 10.30.0.2.9: P 1:101(100) ack 1 win 2920 <nop,nop,timestamp 623459 620032>
11:11:39.426963 IP 10.10.0.2.57352 > 10.30.0.2.9: . 101:625(524) ack 1 win 2920 <nop,nop,timestamp 623459 620032>
11:11:39.427167 IP 10.10.0.2.57352 > 10.30.0.2.9: . 625:1149(524) ack 1 win 2920 <nop,nop,timestamp 623459 620032>
11:11:39.427367 IP 10.10.0.2.57352 > 10.30.0.2.9: . 1149:1673(524) ack 1 win 2920 <nop,nop,timestamp 623459 620032>
11:11:39.428810 IP 10.30.0.2.9 > 10.10.0.2.57352: . ack 101 win 2896 <nop,nop,timestamp 620032 623459>
11:11:39.429223 IP 10.30.0.2.9 > 10.10.0.2.57352: . ack 625 win 3420 <nop,nop,timestamp 620032 623459>
11:11:39.429230 IP 10.30.0.2.9 > 10.10.0.2.57352: . ack 1149 win 3944 <nop,nop,timestamp 620032 623459>
11:11:39.429234 IP 10.30.0.2.9 > 10.10.0.2.57352: . ack 1673 win 4468 <nop,nop,timestamp 620032 623459>
11:11:39.429491 IP 10.10.0.2.57352 > 10.30.0.2.9: . 1673:2197(524) ack 1 win 2920 <nop,nop,timestamp 623459 620032>
11:11:39.429665 IP 10.10.0.2.57352 > 10.30.0.2.9: . 2197:2721(524) ack 1 win 2920 <nop,nop,timestamp 623459 620032>
11:11:39.429667 IP 10.10.0.2.57352 > 10.30.0.2.9: FP 2721:3001(280) ack 1 win 2920 <nop,nop,timestamp 623459 620032>
11:11:39.429793 IP 10.30.0.2.9 > 10.10.0.2.57352: . ack 2197 win 4992 <nop,nop,timestamp 620032 623459>
11:11:39.429832 IP 10.30.0.2.9 > 10.10.0.2.57352: . ack 2721 win 5516 <nop,nop,timestamp 620032 623459>
11:11:39.430908 IP 10.30.0.2.9 > 10.10.0.2.57352: F 1:1(0) ack 3002 win 5516 <nop,nop,timestamp 620032 623459>
11:11:39.431020 IP 10.10.0.2.57352 > 10.30.0.2.9: . ack 2 win 2920 <nop,nop,timestamp 623459 620032>

*** Нейгл работает иногда

c1:~# ./nagle default 10.30.0.2 9 0 30

c2:~# tcpdump -ni eth0 tcp
tcpdump: verbose output suppressed, use -v or -vv for full protocol decode
listening on eth0, link-type EN10MB (Ethernet), capture size 96 bytes
11:17:00.942635 IP 10.10.0.2.48814 > 10.30.0.2.9: S 3644690014:3644690014(0) win 5840 <mss 1460,sackOK,timestamp 655608 0,nop,wscale 1>
11:17:00.945423 IP 10.30.0.2.9 > 10.10.0.2.48814: S 3636517708:3636517708(0) ack 3644690015 win 5792 <mss 536,sackOK,timestamp 652184 655608,nop,wscale 1>
11:17:00.946146 IP 10.10.0.2.48814 > 10.30.0.2.9: . ack 1 win 2920 <nop,nop,timestamp 655611 652184>
11:17:00.951899 IP 10.10.0.2.48814 > 10.30.0.2.9: P 1:101(100) ack 1 win 2920 <nop,nop,timestamp 655611 652184>
11:17:00.951905 IP 10.10.0.2.48814 > 10.30.0.2.9: . 101:625(524) ack 1 win 2920 <nop,nop,timestamp 655611 652184>
11:17:00.951912 IP 10.10.0.2.48814 > 10.30.0.2.9: . 625:1149(524) ack 1 win 2920 <nop,nop,timestamp 655611 652184>
11:17:00.952139 IP 10.10.0.2.48814 > 10.30.0.2.9: . 1149:1673(524) ack 1 win 2920 <nop,nop,timestamp 655611 652184>
11:17:00.953107 IP 10.30.0.2.9 > 10.10.0.2.48814: . ack 101 win 2896 <nop,nop,timestamp 652184 655611>
11:17:00.953114 IP 10.30.0.2.9 > 10.10.0.2.48814: . ack 625 win 3420 <nop,nop,timestamp 652184 655611>
11:17:00.953119 IP 10.30.0.2.9 > 10.10.0.2.48814: . ack 1149 win 3944 <nop,nop,timestamp 652184 655611>
11:17:00.953208 IP 10.30.0.2.9 > 10.10.0.2.48814: . ack 1673 win 4468 <nop,nop,timestamp 652184 655611>
11:17:00.953231 IP 10.10.0.2.48814 > 10.30.0.2.9: . 1673:2197(524) ack 1 win 2920 <nop,nop,timestamp 655611 652184>
11:17:00.953255 IP 10.10.0.2.48814 > 10.30.0.2.9: . 2197:2721(524) ack 1 win 2920 <nop,nop,timestamp 655611 652184>
11:17:00.953449 IP 10.10.0.2.48814 > 10.30.0.2.9: P 2721:2801(80) ack 1 win 2920 <nop,nop,timestamp 655611 652184>
11:17:00.953728 IP 10.30.0.2.9 > 10.10.0.2.48814: . ack 2197 win 4992 <nop,nop,timestamp 652184 655611>
11:17:00.953736 IP 10.30.0.2.9 > 10.10.0.2.48814: . ack 2721 win 5516 <nop,nop,timestamp 652184 655611>
11:17:00.953740 IP 10.30.0.2.9 > 10.10.0.2.48814: . ack 2801 win 5516 <nop,nop,timestamp 652184 655611>
11:17:00.958689 IP 10.10.0.2.48814 > 10.30.0.2.9: P 2801:2901(100) ack 1 win 2920 <nop,nop,timestamp 655612 652184>
11:17:00.958982 IP 10.30.0.2.9 > 10.10.0.2.48814: . ack 2901 win 5516 <nop,nop,timestamp 652184 655612>
11:17:00.959040 IP 10.10.0.2.48814 > 10.30.0.2.9: P 2901:3001(100) ack 1 win 2920 <nop,nop,timestamp 655612 652184>
11:17:00.959184 IP 10.30.0.2.9 > 10.10.0.2.48814: . ack 3001 win 5516 <nop,nop,timestamp 652184 655612>
11:17:00.960041 IP 10.10.0.2.48814 > 10.30.0.2.9: F 3001:3001(0) ack 1 win 2920 <nop,nop,timestamp 655612 652184>
11:17:00.961073 IP 10.30.0.2.9 > 10.10.0.2.48814: F 1:1(0) ack 3002 win 5516 <nop,nop,timestamp 652184 655612>
11:17:00.961131 IP 10.10.0.2.48814 > 10.30.0.2.9: . ack 2 win 2920 <nop,nop,timestamp 655612 652184>

*** Нейгл не работает

c1:~# ./nagle default 10.30.0.2 9 1 30

c2:~# tcpdump -ni eth0 tcp
tcpdump: verbose output suppressed, use -v or -vv for full protocol decode
listening on eth0, link-type EN10MB (Ethernet), capture size 96 bytes
11:18:34.191532 IP 10.10.0.2.34146 > 10.30.0.2.9: S 810089914:810089914(0) win 5840 <mss 1460,sackOK,timestamp 664932 0,nop,wscale 1>
11:18:34.192058 IP 10.30.0.2.9 > 10.10.0.2.34146: S 817349547:817349547(0) ack 810089915 win 5792 <mss 536,sackOK,timestamp 661507 664932,nop,wscale 1>
11:18:34.195148 IP 10.10.0.2.34146 > 10.30.0.2.9: . ack 1 win 2920 <nop,nop,timestamp 664932 661507>
11:18:34.195585 IP 10.10.0.2.34146 > 10.30.0.2.9: P 1:101(100) ack 1 win 2920 <nop,nop,timestamp 664932 661507>
11:18:34.196190 IP 10.30.0.2.9 > 10.10.0.2.34146: . ack 101 win 2896 <nop,nop,timestamp 661508 664932>
11:18:34.206245 IP 10.10.0.2.34146 > 10.30.0.2.9: P 101:201(100) ack 1 win 2920 <nop,nop,timestamp 664937 661508>
11:18:34.208433 IP 10.30.0.2.9 > 10.10.0.2.34146: . ack 201 win 2896 <nop,nop,timestamp 661508 664937>
11:18:34.212524 IP 10.10.0.2.34146 > 10.30.0.2.9: P 201:301(100) ack 1 win 2920 <nop,nop,timestamp 664937 661508>
11:18:34.213243 IP 10.30.0.2.9 > 10.10.0.2.34146: . ack 301 win 2896 <nop,nop,timestamp 661508 664937>
11:18:34.220669 IP 10.10.0.2.34146 > 10.30.0.2.9: P 301:401(100) ack 1 win 2920 <nop,nop,timestamp 664938 661508>
11:18:34.221409 IP 10.30.0.2.9 > 10.10.0.2.34146: . ack 401 win 2896 <nop,nop,timestamp 661511 664938>
11:18:34.230669 IP 10.10.0.2.34146 > 10.30.0.2.9: P 401:501(100) ack 1 win 2920 <nop,nop,timestamp 664939 661511>
11:18:34.231132 IP 10.30.0.2.9 > 10.10.0.2.34146: . ack 501 win 2896 <nop,nop,timestamp 661511 664939>
11:18:34.240383 IP 10.10.0.2.34146 > 10.30.0.2.9: P 501:601(100) ack 1 win 2920 <nop,nop,timestamp 664940 661511>
11:18:34.240982 IP 10.30.0.2.9 > 10.10.0.2.34146: . ack 601 win 2896 <nop,nop,timestamp 661513 664940>
11:18:34.250227 IP 10.10.0.2.34146 > 10.30.0.2.9: P 601:701(100) ack 1 win 2920 <nop,nop,timestamp 664941 661513>
11:18:34.250452 IP 10.30.0.2.9 > 10.10.0.2.34146: . ack 701 win 2896 <nop,nop,timestamp 661514 664941>
11:18:34.259751 IP 10.10.0.2.34146 > 10.30.0.2.9: P 701:801(100) ack 1 win 2920 <nop,nop,timestamp 664942 661514>
11:18:34.260287 IP 10.30.0.2.9 > 10.10.0.2.34146: . ack 801 win 2896 <nop,nop,timestamp 661514 664942>
11:18:34.270160 IP 10.10.0.2.34146 > 10.30.0.2.9: P 801:901(100) ack 1 win 2920 <nop,nop,timestamp 664943 661514>
11:18:34.270471 IP 10.30.0.2.9 > 10.10.0.2.34146: . ack 901 win 2896 <nop,nop,timestamp 661515 664943>
11:18:34.279840 IP 10.10.0.2.34146 > 10.30.0.2.9: P 901:1001(100) ack 1 win 2920 <nop,nop,timestamp 664944 661515>
11:18:34.280070 IP 10.30.0.2.9 > 10.10.0.2.34146: . ack 1001 win 2896 <nop,nop,timestamp 661517 664944>
11:18:34.289711 IP 10.10.0.2.34146 > 10.30.0.2.9: P 1001:1101(100) ack 1 win 2920 <nop,nop,timestamp 664945 661517>
11:18:34.289941 IP 10.30.0.2.9 > 10.10.0.2.34146: . ack 1101 win 2896 <nop,nop,timestamp 661517 664945>
11:18:34.299718 IP 10.10.0.2.34146 > 10.30.0.2.9: P 1101:1201(100) ack 1 win 2920 <nop,nop,timestamp 664946 661517>
11:18:34.299947 IP 10.30.0.2.9 > 10.10.0.2.34146: . ack 1201 win 2896 <nop,nop,timestamp 661518 664946>
11:18:34.309751 IP 10.10.0.2.34146 > 10.30.0.2.9: P 1201:1301(100) ack 1 win 2920 <nop,nop,timestamp 664947 661518>
11:18:34.309945 IP 10.30.0.2.9 > 10.10.0.2.34146: . ack 1301 win 2896 <nop,nop,timestamp 661519 664947>
11:18:34.319658 IP 10.10.0.2.34146 > 10.30.0.2.9: P 1301:1401(100) ack 1 win 2920 <nop,nop,timestamp 664948 661519>
11:18:34.319835 IP 10.30.0.2.9 > 10.10.0.2.34146: . ack 1401 win 2896 <nop,nop,timestamp 661520 664948>
11:18:34.329570 IP 10.10.0.2.34146 > 10.30.0.2.9: P 1401:1501(100) ack 1 win 2920 <nop,nop,timestamp 664949 661520>
11:18:34.329809 IP 10.30.0.2.9 > 10.10.0.2.34146: . ack 1501 win 2896 <nop,nop,timestamp 661521 664949>
11:18:34.339708 IP 10.10.0.2.34146 > 10.30.0.2.9: P 1501:1601(100) ack 1 win 2920 <nop,nop,timestamp 664950 661521>
11:18:34.339944 IP 10.30.0.2.9 > 10.10.0.2.34146: . ack 1601 win 2896 <nop,nop,timestamp 661522 664950>
11:18:34.349698 IP 10.10.0.2.34146 > 10.30.0.2.9: P 1601:1701(100) ack 1 win 2920 <nop,nop,timestamp 664951 661522>
11:18:34.349896 IP 10.30.0.2.9 > 10.10.0.2.34146: . ack 1701 win 2896 <nop,nop,timestamp 661523 664951>
11:18:34.359639 IP 10.10.0.2.34146 > 10.30.0.2.9: P 1701:1801(100) ack 1 win 2920 <nop,nop,timestamp 664952 661523>
11:18:34.359855 IP 10.30.0.2.9 > 10.10.0.2.34146: . ack 1801 win 2896 <nop,nop,timestamp 661524 664952>
11:18:34.369656 IP 10.10.0.2.34146 > 10.30.0.2.9: P 1801:1901(100) ack 1 win 2920 <nop,nop,timestamp 664953 661524>
11:18:34.369881 IP 10.30.0.2.9 > 10.10.0.2.34146: . ack 1901 win 2896 <nop,nop,timestamp 661525 664953>
11:18:34.379664 IP 10.10.0.2.34146 > 10.30.0.2.9: P 1901:2001(100) ack 1 win 2920 <nop,nop,timestamp 664954 661525>
11:18:34.379880 IP 10.30.0.2.9 > 10.10.0.2.34146: . ack 2001 win 2896 <nop,nop,timestamp 661526 664954>
11:18:34.389661 IP 10.10.0.2.34146 > 10.30.0.2.9: P 2001:2101(100) ack 1 win 2920 <nop,nop,timestamp 664955 661526>
11:18:34.389864 IP 10.30.0.2.9 > 10.10.0.2.34146: . ack 2101 win 2896 <nop,nop,timestamp 661527 664955>
11:18:34.399692 IP 10.10.0.2.34146 > 10.30.0.2.9: P 2101:2201(100) ack 1 win 2920 <nop,nop,timestamp 664956 661527>
11:18:34.399974 IP 10.30.0.2.9 > 10.10.0.2.34146: . ack 2201 win 2896 <nop,nop,timestamp 661528 664956>
11:18:34.409776 IP 10.10.0.2.34146 > 10.30.0.2.9: P 2201:2301(100) ack 1 win 2920 <nop,nop,timestamp 664957 661528>
11:18:34.410046 IP 10.30.0.2.9 > 10.10.0.2.34146: . ack 2301 win 2896 <nop,nop,timestamp 661529 664957>
11:18:34.421599 IP 10.10.0.2.34146 > 10.30.0.2.9: P 2301:2401(100) ack 1 win 2920 <nop,nop,timestamp 664958 661529>
11:18:34.421841 IP 10.30.0.2.9 > 10.10.0.2.34146: . ack 2401 win 2896 <nop,nop,timestamp 661531 664958>
11:18:34.429784 IP 10.10.0.2.34146 > 10.30.0.2.9: P 2401:2501(100) ack 1 win 2920 <nop,nop,timestamp 664959 661531>
11:18:34.430035 IP 10.30.0.2.9 > 10.10.0.2.34146: . ack 2501 win 2896 <nop,nop,timestamp 661531 664959>
11:18:34.439828 IP 10.10.0.2.34146 > 10.30.0.2.9: P 2501:2601(100) ack 1 win 2920 <nop,nop,timestamp 664960 661531>
11:18:34.440113 IP 10.30.0.2.9 > 10.10.0.2.34146: . ack 2601 win 2896 <nop,nop,timestamp 661533 664960>
11:18:34.449941 IP 10.10.0.2.34146 > 10.30.0.2.9: P 2601:2701(100) ack 1 win 2920 <nop,nop,timestamp 664961 661533>
11:18:34.450600 IP 10.30.0.2.9 > 10.10.0.2.34146: . ack 2701 win 2896 <nop,nop,timestamp 661533 664961>
11:18:34.460438 IP 10.10.0.2.34146 > 10.30.0.2.9: P 2701:2801(100) ack 1 win 2920 <nop,nop,timestamp 664962 661533>
11:18:34.460645 IP 10.30.0.2.9 > 10.10.0.2.34146: . ack 2801 win 2896 <nop,nop,timestamp 661535 664962>
11:18:34.469714 IP 10.10.0.2.34146 > 10.30.0.2.9: P 2801:2901(100) ack 1 win 2920 <nop,nop,timestamp 664963 661535>
11:18:34.469895 IP 10.30.0.2.9 > 10.10.0.2.34146: . ack 2901 win 2896 <nop,nop,timestamp 661536 664963>
11:18:34.479677 IP 10.10.0.2.34146 > 10.30.0.2.9: P 2901:3001(100) ack 1 win 2920 <nop,nop,timestamp 664964 661536>
11:18:34.480555 IP 10.30.0.2.9 > 10.10.0.2.34146: . ack 3001 win 2896 <nop,nop,timestamp 661536 664964>
11:18:34.490629 IP 10.10.0.2.34146 > 10.30.0.2.9: F 3001:3001(0) ack 1 win 2920 <nop,nop,timestamp 664965 661536>
11:18:34.491714 IP 10.30.0.2.9 > 10.10.0.2.34146: F 1:1(0) ack 3002 win 2896 <nop,nop,timestamp 661537 664965>
11:18:34.491855 IP 10.10.0.2.34146 > 10.30.0.2.9: . ack 2 win 2920 <nop,nop,timestamp 664965 661537>

*** TCP_CORK без буферизации

c1:~# ./nagle cork 10.30.0.2 9 210 30

c2:~# tcpdump -ni eth0 tcp
tcpdump: verbose output suppressed, use -v or -vv for full protocol decode
listening on eth0, link-type EN10MB (Ethernet), capture size 96 bytes
11:29:59.874447 IP 10.10.0.2.53196 > 10.30.0.2.9: S 2976538073:2976538073(0) win 5840 <mss 1460,sackOK,timestamp 733501 0,nop,wscale 1>
11:29:59.874906 IP 10.30.0.2.9 > 10.10.0.2.53196: S 2976186785:2976186785(0) ack 2976538074 win 5792 <mss 536,sackOK,timestamp 730077 733501,nop,wscale 1>
11:29:59.875101 IP 10.10.0.2.53196 > 10.30.0.2.9: . ack 1 win 2920 <nop,nop,timestamp 733501 730077>
11:30:00.059494 IP 10.10.0.2.53196 > 10.30.0.2.9: P 1:101(100) ack 1 win 2920 <nop,nop,timestamp 733522 730077>
11:30:00.060171 IP 10.30.0.2.9 > 10.10.0.2.53196: . ack 101 win 2896 <nop,nop,timestamp 730094 733522>
11:30:00.299360 IP 10.10.0.2.53196 > 10.30.0.2.9: P 101:201(100) ack 1 win 2920 <nop,nop,timestamp 733546 730094>
11:30:00.299658 IP 10.30.0.2.9 > 10.10.0.2.53196: . ack 201 win 2896 <nop,nop,timestamp 730118 733546>
11:30:00.519400 IP 10.10.0.2.53196 > 10.30.0.2.9: P 201:301(100) ack 1 win 2920 <nop,nop,timestamp 733568 730118>
11:30:00.519790 IP 10.30.0.2.9 > 10.10.0.2.53196: . ack 301 win 2896 <nop,nop,timestamp 730140 733568>
11:30:00.739469 IP 10.10.0.2.53196 > 10.30.0.2.9: P 301:401(100) ack 1 win 2920 <nop,nop,timestamp 733590 730140>
11:30:00.740190 IP 10.30.0.2.9 > 10.10.0.2.53196: . ack 401 win 2896 <nop,nop,timestamp 730162 733590>
11:30:00.959483 IP 10.10.0.2.53196 > 10.30.0.2.9: P 401:501(100) ack 1 win 2920 <nop,nop,timestamp 733612 730162>
11:30:00.960093 IP 10.30.0.2.9 > 10.10.0.2.53196: . ack 501 win 2896 <nop,nop,timestamp 730184 733612>
11:30:01.179470 IP 10.10.0.2.53196 > 10.30.0.2.9: P 501:601(100) ack 1 win 2920 <nop,nop,timestamp 733634 730184>
11:30:01.180128 IP 10.30.0.2.9 > 10.10.0.2.53196: . ack 601 win 2896 <nop,nop,timestamp 730206 733634>
11:30:01.399464 IP 10.10.0.2.53196 > 10.30.0.2.9: P 601:701(100) ack 1 win 2920 <nop,nop,timestamp 733656 730206>
11:30:01.400080 IP 10.30.0.2.9 > 10.10.0.2.53196: . ack 701 win 2896 <nop,nop,timestamp 730228 733656>
11:30:01.619437 IP 10.10.0.2.53196 > 10.30.0.2.9: P 701:801(100) ack 1 win 2920 <nop,nop,timestamp 733678 730228>
11:30:01.620004 IP 10.30.0.2.9 > 10.10.0.2.53196: . ack 801 win 2896 <nop,nop,timestamp 730250 733678>
11:30:01.839496 IP 10.10.0.2.53196 > 10.30.0.2.9: P 801:901(100) ack 1 win 2920 <nop,nop,timestamp 733700 730250>
11:30:01.840247 IP 10.30.0.2.9 > 10.10.0.2.53196: . ack 901 win 2896 <nop,nop,timestamp 730272 733700>
11:30:02.059384 IP 10.10.0.2.53196 > 10.30.0.2.9: P 901:1001(100) ack 1 win 2920 <nop,nop,timestamp 733722 730272>
11:30:02.059792 IP 10.30.0.2.9 > 10.10.0.2.53196: . ack 1001 win 2896 <nop,nop,timestamp 730294 733722>
11:30:02.279359 IP 10.10.0.2.53196 > 10.30.0.2.9: P 1001:1101(100) ack 1 win 2920 <nop,nop,timestamp 733744 730294>
11:30:02.279660 IP 10.30.0.2.9 > 10.10.0.2.53196: . ack 1101 win 2896 <nop,nop,timestamp 730316 733744>
11:30:02.499451 IP 10.10.0.2.53196 > 10.30.0.2.9: P 1101:1201(100) ack 1 win 2920 <nop,nop,timestamp 733766 730316>
11:30:02.500131 IP 10.30.0.2.9 > 10.10.0.2.53196: . ack 1201 win 2896 <nop,nop,timestamp 730338 733766>
11:30:02.719505 IP 10.10.0.2.53196 > 10.30.0.2.9: P 1201:1301(100) ack 1 win 2920 <nop,nop,timestamp 733788 730338>
11:30:02.720150 IP 10.30.0.2.9 > 10.10.0.2.53196: . ack 1301 win 2896 <nop,nop,timestamp 730360 733788>
11:30:02.939425 IP 10.10.0.2.53196 > 10.30.0.2.9: P 1301:1401(100) ack 1 win 2920 <nop,nop,timestamp 733810 730360>
11:30:02.940060 IP 10.30.0.2.9 > 10.10.0.2.53196: . ack 1401 win 2896 <nop,nop,timestamp 730382 733810>
11:30:03.159476 IP 10.10.0.2.53196 > 10.30.0.2.9: P 1401:1501(100) ack 1 win 2920 <nop,nop,timestamp 733832 730382>
11:30:03.160181 IP 10.30.0.2.9 > 10.10.0.2.53196: . ack 1501 win 2896 <nop,nop,timestamp 730404 733832>
11:30:03.379342 IP 10.10.0.2.53196 > 10.30.0.2.9: P 1501:1601(100) ack 1 win 2920 <nop,nop,timestamp 733854 730404>
11:30:03.379599 IP 10.30.0.2.9 > 10.10.0.2.53196: . ack 1601 win 2896 <nop,nop,timestamp 730426 733854>
11:30:03.599452 IP 10.10.0.2.53196 > 10.30.0.2.9: P 1601:1701(100) ack 1 win 2920 <nop,nop,timestamp 733876 730426>
11:30:03.600086 IP 10.30.0.2.9 > 10.10.0.2.53196: . ack 1701 win 2896 <nop,nop,timestamp 730448 733876>
11:30:03.819409 IP 10.10.0.2.53196 > 10.30.0.2.9: P 1701:1801(100) ack 1 win 2920 <nop,nop,timestamp 733898 730448>
11:30:03.820415 IP 10.30.0.2.9 > 10.10.0.2.53196: . ack 1801 win 2896 <nop,nop,timestamp 730470 733898>
11:30:04.039491 IP 10.10.0.2.53196 > 10.30.0.2.9: P 1801:1901(100) ack 1 win 2920 <nop,nop,timestamp 733920 730470>
11:30:04.040144 IP 10.30.0.2.9 > 10.10.0.2.53196: . ack 1901 win 2896 <nop,nop,timestamp 730492 733920>
11:30:04.259440 IP 10.10.0.2.53196 > 10.30.0.2.9: P 1901:2001(100) ack 1 win 2920 <nop,nop,timestamp 733942 730492>
11:30:04.260118 IP 10.30.0.2.9 > 10.10.0.2.53196: . ack 2001 win 2896 <nop,nop,timestamp 730514 733942>
11:30:04.479364 IP 10.10.0.2.53196 > 10.30.0.2.9: P 2001:2101(100) ack 1 win 2920 <nop,nop,timestamp 733964 730514>
11:30:04.479656 IP 10.30.0.2.9 > 10.10.0.2.53196: . ack 2101 win 2896 <nop,nop,timestamp 730536 733964>
11:30:04.699497 IP 10.10.0.2.53196 > 10.30.0.2.9: P 2101:2201(100) ack 1 win 2920 <nop,nop,timestamp 733986 730536>
11:30:04.700166 IP 10.30.0.2.9 > 10.10.0.2.53196: . ack 2201 win 2896 <nop,nop,timestamp 730558 733986>
11:30:04.919446 IP 10.10.0.2.53196 > 10.30.0.2.9: P 2201:2301(100) ack 1 win 2920 <nop,nop,timestamp 734008 730558>
11:30:04.920034 IP 10.30.0.2.9 > 10.10.0.2.53196: . ack 2301 win 2896 <nop,nop,timestamp 730580 734008>
11:30:05.139349 IP 10.10.0.2.53196 > 10.30.0.2.9: P 2301:2401(100) ack 1 win 2920 <nop,nop,timestamp 734030 730580>
11:30:05.139624 IP 10.30.0.2.9 > 10.10.0.2.53196: . ack 2401 win 2896 <nop,nop,timestamp 730602 734030>
11:30:05.359486 IP 10.10.0.2.53196 > 10.30.0.2.9: P 2401:2501(100) ack 1 win 2920 <nop,nop,timestamp 734052 730602>
11:30:05.360168 IP 10.30.0.2.9 > 10.10.0.2.53196: . ack 2501 win 2896 <nop,nop,timestamp 730624 734052>
11:30:05.579435 IP 10.10.0.2.53196 > 10.30.0.2.9: P 2501:2601(100) ack 1 win 2920 <nop,nop,timestamp 734074 730624>
11:30:05.579971 IP 10.30.0.2.9 > 10.10.0.2.53196: . ack 2601 win 2896 <nop,nop,timestamp 730646 734074>
11:30:05.799416 IP 10.10.0.2.53196 > 10.30.0.2.9: P 2601:2701(100) ack 1 win 2920 <nop,nop,timestamp 734096 730646>
11:30:05.800289 IP 10.30.0.2.9 > 10.10.0.2.53196: . ack 2701 win 2896 <nop,nop,timestamp 730668 734096>
11:30:06.019471 IP 10.10.0.2.53196 > 10.30.0.2.9: P 2701:2801(100) ack 1 win 2920 <nop,nop,timestamp 734118 730668>
11:30:06.020159 IP 10.30.0.2.9 > 10.10.0.2.53196: . ack 2801 win 2896 <nop,nop,timestamp 730690 734118>
11:30:06.239358 IP 10.10.0.2.53196 > 10.30.0.2.9: P 2801:2901(100) ack 1 win 2920 <nop,nop,timestamp 734140 730690>
11:30:06.239615 IP 10.30.0.2.9 > 10.10.0.2.53196: . ack 2901 win 2896 <nop,nop,timestamp 730712 734140>
11:30:06.459436 IP 10.10.0.2.53196 > 10.30.0.2.9: P 2901:3001(100) ack 1 win 2920 <nop,nop,timestamp 734162 730712>
11:30:06.460070 IP 10.30.0.2.9 > 10.10.0.2.53196: . ack 3001 win 2896 <nop,nop,timestamp 730734 734162>
11:30:06.474002 IP 10.10.0.2.53196 > 10.30.0.2.9: F 3001:3001(0) ack 1 win 2920 <nop,nop,timestamp 734163 730734>
11:30:06.477221 IP 10.30.0.2.9 > 10.10.0.2.53196: F 1:1(0) ack 3002 win 2896 <nop,nop,timestamp 730736 734163>
11:30:06.477724 IP 10.10.0.2.53196 > 10.30.0.2.9: . ack 2 win 2920 <nop,nop,timestamp 734163 730736>

***

c1:~# ./nagle nodelay 10.30.0.2 9 -1 30

c2:~# tcpdump -ni eth0 tcp
tcpdump: verbose output suppressed, use -v or -vv for full protocol decode
listening on eth0, link-type EN10MB (Ethernet), capture size 96 bytes
11:24:03.423575 IP 10.10.0.2.47384 > 10.30.0.2.9: S 1677626099:1677626099(0) win 5840 <mss 1460,sackOK,timestamp 697855 0,nop,wscale 1>
11:24:03.434625 IP 10.30.0.2.9 > 10.10.0.2.47384: S 1686800077:1686800077(0) ack 1677626100 win 5792 <mss 536,sackOK,timestamp 694431 697855,nop,wscale 1>
11:24:03.437877 IP 10.10.0.2.47384 > 10.30.0.2.9: . ack 1 win 2920 <nop,nop,timestamp 697859 694431>
11:24:03.437883 IP 10.10.0.2.47384 > 10.30.0.2.9: P 1:101(100) ack 1 win 2920 <nop,nop,timestamp 697859 694431>
11:24:03.437890 IP 10.10.0.2.47384 > 10.30.0.2.9: P 101:201(100) ack 1 win 2920 <nop,nop,timestamp 697859 694431>
11:24:03.440391 IP 10.30.0.2.9 > 10.10.0.2.47384: . ack 101 win 2896 <nop,nop,timestamp 694433 697859>
11:24:03.447944 IP 10.10.0.2.47384 > 10.30.0.2.9: . 201:725(524) ack 1 win 2920 <nop,nop,timestamp 697859 694433>
11:24:03.447949 IP 10.10.0.2.47384 > 10.30.0.2.9: . 725:1249(524) ack 1 win 2920 <nop,nop,timestamp 697859 694433>
11:24:03.448023 IP 10.30.0.2.9 > 10.10.0.2.47384: . ack 201 win 2896 <nop,nop,timestamp 694433 697859>
11:24:03.448363 IP 10.10.0.2.47384 > 10.30.0.2.9: . 1249:1773(524) ack 1 win 2920 <nop,nop,timestamp 697859 694433>
11:24:03.448369 IP 10.10.0.2.47384 > 10.30.0.2.9: . 1773:2297(524) ack 1 win 2920 <nop,nop,timestamp 697859 694433>
11:24:03.449111 IP 10.30.0.2.9 > 10.10.0.2.47384: . ack 725 win 3420 <nop,nop,timestamp 694433 697859>
11:24:03.449169 IP 10.30.0.2.9 > 10.10.0.2.47384: . ack 1249 win 3944 <nop,nop,timestamp 694433 697859>
11:24:03.449180 IP 10.10.0.2.47384 > 10.30.0.2.9: . 2297:2821(524) ack 1 win 2920 <nop,nop,timestamp 697859 694433>
11:24:03.449185 IP 10.10.0.2.47384 > 10.30.0.2.9: FP 2821:3001(180) ack 1 win 2920 <nop,nop,timestamp 697859 694433>
11:24:03.449283 IP 10.30.0.2.9 > 10.10.0.2.47384: . ack 1773 win 4468 <nop,nop,timestamp 694433 697859>
11:24:03.449389 IP 10.30.0.2.9 > 10.10.0.2.47384: . ack 2297 win 4992 <nop,nop,timestamp 694433 697859>
11:24:03.449450 IP 10.30.0.2.9 > 10.10.0.2.47384: . ack 2821 win 5516 <nop,nop,timestamp 694433 697859>
11:24:03.450268 IP 10.30.0.2.9 > 10.10.0.2.47384: F 1:1(0) ack 3002 win 5516 <nop,nop,timestamp 694433 697859>
11:24:03.450348 IP 10.10.0.2.47384 > 10.30.0.2.9: . ack 2 win 2920 <nop,nop,timestamp 697859 694433>

***

c1:~# ./nagle nodelay 10.30.0.2 9 0 30

c2:~# tcpdump -ni eth0 tcp
tcpdump: verbose output suppressed, use -v or -vv for full protocol decode
listening on eth0, link-type EN10MB (Ethernet), capture size 96 bytes
11:25:09.108056 IP 10.10.0.2.47385 > 10.30.0.2.9: S 2701677936:2701677936(0) win 5840 <mss 1460,sackOK,timestamp 704425 0,nop,wscale 1>
11:25:09.108291 IP 10.30.0.2.9 > 10.10.0.2.47385: S 2708898930:2708898930(0) ack 2701677937 win 5792 <mss 536,sackOK,timestamp 700999 704425,nop,wscale 1>
11:25:09.108361 IP 10.10.0.2.47385 > 10.30.0.2.9: . ack 1 win 2920 <nop,nop,timestamp 704425 700999>
11:25:09.108787 IP 10.10.0.2.47385 > 10.30.0.2.9: P 1:101(100) ack 1 win 2920 <nop,nop,timestamp 704425 700999>
11:25:09.109414 IP 10.30.0.2.9 > 10.10.0.2.47385: . ack 101 win 2896 <nop,nop,timestamp 700999 704425>
11:25:09.109850 IP 10.10.0.2.47385 > 10.30.0.2.9: P 101:201(100) ack 1 win 2920 <nop,nop,timestamp 704427 700999>
11:25:09.109852 IP 10.10.0.2.47385 > 10.30.0.2.9: P 201:301(100) ack 1 win 2920 <nop,nop,timestamp 704427 700999>
11:25:09.109854 IP 10.10.0.2.47385 > 10.30.0.2.9: P 301:401(100) ack 1 win 2920 <nop,nop,timestamp 704427 700999>
11:25:09.109855 IP 10.10.0.2.47385 > 10.30.0.2.9: P 401:501(100) ack 1 win 2920 <nop,nop,timestamp 704427 700999>
11:25:09.109858 IP 10.10.0.2.47385 > 10.30.0.2.9: P 501:601(100) ack 1 win 2920 <nop,nop,timestamp 704427 700999>
11:25:09.110344 IP 10.30.0.2.9 > 10.10.0.2.47385: . ack 201 win 2896 <nop,nop,timestamp 700999 704427>
11:25:09.110352 IP 10.30.0.2.9 > 10.10.0.2.47385: . ack 301 win 2896 <nop,nop,timestamp 700999 704427>
11:25:09.110583 IP 10.10.0.2.47385 > 10.30.0.2.9: P 601:901(300) ack 1 win 2920 <nop,nop,timestamp 704427 700999>
11:25:09.110854 IP 10.30.0.2.9 > 10.10.0.2.47385: . ack 401 win 2896 <nop,nop,timestamp 700999 704427>
11:25:09.110862 IP 10.30.0.2.9 > 10.10.0.2.47385: . ack 501 win 2896 <nop,nop,timestamp 700999 704427>
11:25:09.110867 IP 10.30.0.2.9 > 10.10.0.2.47385: . ack 901 win 3420 <nop,nop,timestamp 700999 704427>
11:25:09.122575 IP 10.10.0.2.47385 > 10.30.0.2.9: P 901:1001(100) ack 1 win 2920 <nop,nop,timestamp 704428 700999>
11:25:09.122577 IP 10.10.0.2.47385 > 10.30.0.2.9: P 1001:1101(100) ack 1 win 2920 <nop,nop,timestamp 704428 700999>
11:25:09.122580 IP 10.10.0.2.47385 > 10.30.0.2.9: P 1101:1201(100) ack 1 win 2920 <nop,nop,timestamp 704428 700999>
11:25:09.122582 IP 10.10.0.2.47385 > 10.30.0.2.9: P 1201:1301(100) ack 1 win 2920 <nop,nop,timestamp 704428 700999>
11:25:09.122585 IP 10.10.0.2.47385 > 10.30.0.2.9: P 1301:1401(100) ack 1 win 2920 <nop,nop,timestamp 704428 700999>
11:25:09.122588 IP 10.10.0.2.47385 > 10.30.0.2.9: P 1401:1501(100) ack 1 win 2920 <nop,nop,timestamp 704428 700999>
11:25:09.122592 IP 10.10.0.2.47385 > 10.30.0.2.9: P 1501:1601(100) ack 1 win 2920 <nop,nop,timestamp 704428 700999>
11:25:09.122595 IP 10.10.0.2.47385 > 10.30.0.2.9: P 1601:1701(100) ack 1 win 2920 <nop,nop,timestamp 704428 700999>
11:25:09.123466 IP 10.30.0.2.9 > 10.10.0.2.47385: . ack 1501 win 3420 <nop,nop,timestamp 701002 704428>
11:25:09.123474 IP 10.30.0.2.9 > 10.10.0.2.47385: . ack 1701 win 3420 <nop,nop,timestamp 701002 704428>
11:25:09.123685 IP 10.10.0.2.47385 > 10.30.0.2.9: . 1701:2225(524) ack 1 win 2920 <nop,nop,timestamp 704428 701002>
11:25:09.123923 IP 10.30.0.2.9 > 10.10.0.2.47385: . ack 2225 win 3944 <nop,nop,timestamp 701002 704428>
11:25:09.124078 IP 10.10.0.2.47385 > 10.30.0.2.9: . 2225:2749(524) ack 1 win 2920 <nop,nop,timestamp 704428 701002>
11:25:09.124308 IP 10.30.0.2.9 > 10.10.0.2.47385: . ack 2749 win 4468 <nop,nop,timestamp 701002 704428>
11:25:09.124451 IP 10.10.0.2.47385 > 10.30.0.2.9: FP 2749:3001(252) ack 1 win 2920 <nop,nop,timestamp 704428 701002>
11:25:09.125792 IP 10.30.0.2.9 > 10.10.0.2.47385: F 1:1(0) ack 3002 win 4468 <nop,nop,timestamp 701002 704428>
11:25:09.125949 IP 10.10.0.2.47385 > 10.30.0.2.9: . ack 2 win 2920 <nop,nop,timestamp 704428 701002>




+++++ ПОВТОРЫ



*** Ранний повтор

c1:~# tcpdump -ni eth0 tcp
tcpdump: verbose output suppressed, use -v or -vv for full protocol decode
listening on eth0, link-type EN10MB (Ethernet), capture size 96 bytes
11:35:41.311253 IP 10.10.0.2.55892 > 10.30.0.2.9: S 4044557716:4044557716(0) win 5840 <mss 1460,sackOK,timestamp 767679 0,nop,wscale 1>
11:35:44.278488 IP 10.10.0.2.55892 > 10.30.0.2.9: S 4044557716:4044557716(0) win 5840 <mss 1460,sackOK,timestamp 767979 0,nop,wscale 1>
11:35:44.293800 IP 10.30.0.2.9 > 10.10.0.2.55892: S 4086286307:4086286307(0) ack 4044557717 win 5792 <mss 536,sackOK,timestamp 764552 767979,nop,wscale 1>
11:35:44.293860 IP 10.10.0.2.55892 > 10.30.0.2.9: . ack 1 win 2920 <nop,nop,timestamp 767980 764552>
11:35:44.294828 IP 10.10.0.2.55892 > 10.30.0.2.9: P 1:101(100) ack 1 win 2920 <nop,nop,timestamp 767980 764552>
11:35:44.298330 IP 10.30.0.2.9 > 10.10.0.2.55892: . ack 101 win 2896 <nop,nop,timestamp 764552 767980>
11:35:44.308414 IP 10.10.0.2.55892 > 10.30.0.2.9: P 101:201(100) ack 1 win 2920 <nop,nop,timestamp 767982 764552>
11:35:44.308916 IP 10.30.0.2.9 > 10.10.0.2.55892: . ack 201 win 2896 <nop,nop,timestamp 764555 767982>
11:35:44.319038 IP 10.10.0.2.55892 > 10.30.0.2.9: P 201:301(100) ack 1 win 2920 <nop,nop,timestamp 767983 764555>
11:35:44.319520 IP 10.30.0.2.9 > 10.10.0.2.55892: . ack 301 win 2896 <nop,nop,timestamp 764555 767983>
11:35:44.329005 IP 10.10.0.2.55892 > 10.30.0.2.9: P 301:401(100) ack 1 win 2920 <nop,nop,timestamp 767984 764555>
11:35:44.338623 IP 10.10.0.2.55892 > 10.30.0.2.9: P 401:501(100) ack 1 win 2920 <nop,nop,timestamp 767985 764555>
11:35:44.339064 IP 10.30.0.2.9 > 10.10.0.2.55892: . ack 301 win 2896 <nop,nop,timestamp 764557 767983,nop,nop,sack 1 {401:501}>
11:35:44.348993 IP 10.10.0.2.55892 > 10.30.0.2.9: P 501:601(100) ack 1 win 2920 <nop,nop,timestamp 767986 764557>
11:35:44.349375 IP 10.30.0.2.9 > 10.10.0.2.55892: . ack 301 win 2896 <nop,nop,timestamp 764559 767983,nop,nop,sack 1 {401:601}>
11:35:44.359008 IP 10.10.0.2.55892 > 10.30.0.2.9: P 601:701(100) ack 1 win 2920 <nop,nop,timestamp 767987 764559>
11:35:44.359276 IP 10.30.0.2.9 > 10.10.0.2.55892: . ack 301 win 2896 <nop,nop,timestamp 764559 767983,nop,nop,sack 1 {401:701}>
11:35:44.359287 IP 10.10.0.2.55892 > 10.30.0.2.9: P 301:401(100) ack 1 win 2920 <nop,nop,timestamp 767987 764559>
11:35:44.359649 IP 10.30.0.2.9 > 10.10.0.2.55892: . ack 701 win 2896 <nop,nop,timestamp 764559 767987>
11:35:44.369185 IP 10.10.0.2.55892 > 10.30.0.2.9: P 701:801(100) ack 1 win 2920 <nop,nop,timestamp 767988 764559>
11:35:44.578536 IP 10.10.0.2.55892 > 10.30.0.2.9: P 701:801(100) ack 1 win 2920 <nop,nop,timestamp 768009 764559>
11:35:44.578953 IP 10.30.0.2.9 > 10.10.0.2.55892: . ack 801 win 2896 <nop,nop,timestamp 764581 768009,nop,nop,sack 1 {701:801}>
11:35:44.578965 IP 10.10.0.2.55892 > 10.30.0.2.9: . 801:1325(524) ack 1 win 2920 <nop,nop,timestamp 768009 764581>
11:35:44.578972 IP 10.10.0.2.55892 > 10.30.0.2.9: . 1325:1849(524) ack 1 win 2920 <nop,nop,timestamp 768009 764581>
11:35:44.579305 IP 10.30.0.2.9 > 10.10.0.2.55892: . ack 1325 win 3420 <nop,nop,timestamp 764581 768009>
11:35:44.579314 IP 10.10.0.2.55892 > 10.30.0.2.9: . 1849:2373(524) ack 1 win 2920 <nop,nop,timestamp 768009 764581>
11:35:44.579319 IP 10.10.0.2.55892 > 10.30.0.2.9: . 2373:2897(524) ack 1 win 2920 <nop,nop,timestamp 768009 764581>
11:35:44.579497 IP 10.30.0.2.9 > 10.10.0.2.55892: . ack 1849 win 3944 <nop,nop,timestamp 764581 768009>
11:35:44.579506 IP 10.10.0.2.55892 > 10.30.0.2.9: P 2897:2901(4) ack 1 win 2920 <nop,nop,timestamp 768009 764581>
11:35:44.579867 IP 10.30.0.2.9 > 10.10.0.2.55892: . ack 2897 win 4992 <nop,nop,timestamp 764581 768009>
11:35:44.579978 IP 10.30.0.2.9 > 10.10.0.2.55892: . ack 2901 win 4992 <nop,nop,timestamp 764581 768009>
11:35:44.590044 IP 10.10.0.2.55892 > 10.30.0.2.9: P 2901:3001(100) ack 1 win 2920 <nop,nop,timestamp 768010 764581>
11:35:44.590919 IP 10.30.0.2.9 > 10.10.0.2.55892: . ack 3001 win 4992 <nop,nop,timestamp 764583 768010>
11:35:44.600247 IP 10.10.0.2.55892 > 10.30.0.2.9: F 3001:3001(0) ack 1 win 2920 <nop,nop,timestamp 768011 764583>
11:35:44.604114 IP 10.30.0.2.9 > 10.10.0.2.55892: F 1:1(0) ack 3002 win 4992 <nop,nop,timestamp 764584 768011>
11:35:44.604188 IP 10.10.0.2.55892 > 10.30.0.2.9: . ack 2 win 2920 <nop,nop,timestamp 768011 764584>

c3:~# tcpdump -ni eth0 tcp
tcpdump: verbose output suppressed, use -v or -vv for full protocol decode
listening on eth0, link-type EN10MB (Ethernet), capture size 96 bytes
11:35:41.662831 IP 10.10.0.2.55892 > 10.30.0.2.9: S 4044557716:4044557716(0) win 5840 <mss 1460,sackOK,timestamp 767679 0,nop,wscale 1>
11:35:44.621712 IP 10.10.0.2.55892 > 10.30.0.2.9: S 4044557716:4044557716(0) win 5840 <mss 1460,sackOK,timestamp 767979 0,nop,wscale 1>
11:35:44.635814 IP 10.30.0.2.9 > 10.10.0.2.55892: S 4086286307:4086286307(0) ack 4044557717 win 5792 <mss 536,sackOK,timestamp 764552 767979,nop,wscale 1>
11:35:44.637976 IP 10.10.0.2.55892 > 10.30.0.2.9: . ack 1 win 2920 <nop,nop,timestamp 767980 764552>
11:35:44.638102 IP 10.10.0.2.55892 > 10.30.0.2.9: P 1:101(100) ack 1 win 2920 <nop,nop,timestamp 767980 764552>
11:35:44.641011 IP 10.30.0.2.9 > 10.10.0.2.55892: . ack 101 win 2896 <nop,nop,timestamp 764552 767980>
11:35:44.651392 IP 10.10.0.2.55892 > 10.30.0.2.9: P 101:201(100) ack 1 win 2920 <nop,nop,timestamp 767982 764552>
11:35:44.651590 IP 10.30.0.2.9 > 10.10.0.2.55892: . ack 201 win 2896 <nop,nop,timestamp 764555 767982>
11:35:44.661989 IP 10.10.0.2.55892 > 10.30.0.2.9: P 201:301(100) ack 1 win 2920 <nop,nop,timestamp 767983 764555>
11:35:44.662156 IP 10.30.0.2.9 > 10.10.0.2.55892: . ack 301 win 2896 <nop,nop,timestamp 764555 767983>
11:35:44.671937 IP 10.10.0.2.55892 > 10.30.0.2.9: P 301:401(100) ack 1 win 2920 <nop,nop,timestamp 767984 764555>
11:35:44.681573 IP 10.10.0.2.55892 > 10.30.0.2.9: P 401:501(100) ack 1 win 2920 <nop,nop,timestamp 767985 764555>
11:35:44.681739 IP 10.30.0.2.9 > 10.10.0.2.55892: . ack 301 win 2896 <nop,nop,timestamp 764557 767983,nop,nop,sack 1 {401:501}>
11:35:44.691918 IP 10.10.0.2.55892 > 10.30.0.2.9: P 501:601(100) ack 1 win 2920 <nop,nop,timestamp 767986 764557>
11:35:44.692060 IP 10.30.0.2.9 > 10.10.0.2.55892: . ack 301 win 2896 <nop,nop,timestamp 764559 767983,nop,nop,sack 1 {401:601}>
11:35:44.701892 IP 10.10.0.2.55892 > 10.30.0.2.9: P 601:701(100) ack 1 win 2920 <nop,nop,timestamp 767987 764559>
11:35:44.702013 IP 10.30.0.2.9 > 10.10.0.2.55892: . ack 301 win 2896 <nop,nop,timestamp 764559 767983,nop,nop,sack 1 {401:701}>
11:35:44.702155 IP 10.10.0.2.55892 > 10.30.0.2.9: P 301:401(100) ack 1 win 2920 <nop,nop,timestamp 767987 764559>
11:35:44.702319 IP 10.30.0.2.9 > 10.10.0.2.55892: . ack 701 win 2896 <nop,nop,timestamp 764559 767987>
11:35:44.712071 IP 10.10.0.2.55892 > 10.30.0.2.9: P 701:801(100) ack 1 win 2920 <nop,nop,timestamp 767988 764559>
11:35:44.921466 IP 10.10.0.2.55892 > 10.30.0.2.9: P 701:801(100) ack 1 win 2920 <nop,nop,timestamp 768009 764559>
11:35:44.921598 IP 10.30.0.2.9 > 10.10.0.2.55892: . ack 801 win 2896 <nop,nop,timestamp 764581 768009,nop,nop,sack 1 {701:801}>
11:35:44.921860 IP 10.10.0.2.55892 > 10.30.0.2.9: . 801:1325(524) ack 1 win 2920 <nop,nop,timestamp 768009 764581>
11:35:44.921862 IP 10.10.0.2.55892 > 10.30.0.2.9: . 1325:1849(524) ack 1 win 2920 <nop,nop,timestamp 768009 764581>
11:35:44.922012 IP 10.30.0.2.9 > 10.10.0.2.55892: . ack 1325 win 3420 <nop,nop,timestamp 764581 768009>
11:35:44.922073 IP 10.30.0.2.9 > 10.10.0.2.55892: . ack 1849 win 3944 <nop,nop,timestamp 764581 768009>
11:35:44.922336 IP 10.10.0.2.55892 > 10.30.0.2.9: . 1849:2373(524) ack 1 win 2920 <nop,nop,timestamp 768009 764581>
11:35:44.922338 IP 10.10.0.2.55892 > 10.30.0.2.9: . 2373:2897(524) ack 1 win 2920 <nop,nop,timestamp 768009 764581>
11:35:44.922469 IP 10.10.0.2.55892 > 10.30.0.2.9: P 2897:2901(4) ack 1 win 2920 <nop,nop,timestamp 768009 764581>
11:35:44.922584 IP 10.30.0.2.9 > 10.10.0.2.55892: . ack 2897 win 4992 <nop,nop,timestamp 764581 768009>
11:35:44.922592 IP 10.30.0.2.9 > 10.10.0.2.55892: . ack 2901 win 4992 <nop,nop,timestamp 764581 768009>
11:35:44.933163 IP 10.10.0.2.55892 > 10.30.0.2.9: P 2901:3001(100) ack 1 win 2920 <nop,nop,timestamp 768010 764581>
11:35:44.933532 IP 10.30.0.2.9 > 10.10.0.2.55892: . ack 3001 win 4992 <nop,nop,timestamp 764583 768010>
11:35:44.943307 IP 10.10.0.2.55892 > 10.30.0.2.9: F 3001:3001(0) ack 1 win 2920 <nop,nop,timestamp 768011 764583>
11:35:44.946680 IP 10.30.0.2.9 > 10.10.0.2.55892: F 1:1(0) ack 3002 win 4992 <nop,nop,timestamp 764584 768011>
11:35:44.947223 IP 10.10.0.2.55892 > 10.30.0.2.9: . ack 2 win 2920 <nop,nop,timestamp 768011 764584>

*** Поздний повтор

c1:~# tcpdump -ni eth0 tcp
tcpdump: verbose output suppressed, use -v or -vv for full protocol decode
listening on eth0, link-type EN10MB (Ethernet), capture size 96 bytes
11:49:27.739062 IP 10.10.0.2.44064 > 10.30.0.2.9: S 4113528368:4113528368(0) win 5840 <mss 1460,sackOK,timestamp 850321 0,nop,wscale 1>
11:49:30.698497 IP 10.10.0.2.44064 > 10.30.0.2.9: S 4113528368:4113528368(0) win 5840 <mss 1460,sackOK,timestamp 850621 0,nop,wscale 1>
11:49:31.016702 IP 10.30.0.2.9 > 10.10.0.2.44064: S 4168881383:4168881383(0) ack 4113528369 win 5792 <mss 536,sackOK,timestamp 847194 850621,nop,wscale 1>
11:49:31.016731 IP 10.10.0.2.44064 > 10.30.0.2.9: . ack 1 win 2920 <nop,nop,timestamp 850652 847194>
11:49:31.017114 IP 10.10.0.2.44064 > 10.30.0.2.9: P 1:101(100) ack 1 win 2920 <nop,nop,timestamp 850652 847194>
11:49:31.025279 IP 10.10.0.2.44064 > 10.30.0.2.9: P 101:201(100) ack 1 win 2920 <nop,nop,timestamp 850654 847194>
11:49:31.028668 IP 10.10.0.2.44064 > 10.30.0.2.9: P 201:301(100) ack 1 win 2920 <nop,nop,timestamp 850654 847194>
11:49:31.326823 IP 10.30.0.2.9 > 10.10.0.2.44064: . ack 101 win 2896 <nop,nop,timestamp 847225 850652>
11:49:31.326869 IP 10.10.0.2.44064 > 10.30.0.2.9: . 301:825(524) ack 1 win 2920 <nop,nop,timestamp 850684 847225>
11:49:31.326885 IP 10.10.0.2.44064 > 10.30.0.2.9: . 825:1349(524) ack 1 win 2920 <nop,nop,timestamp 850684 847225>
11:49:31.326984 IP 10.30.0.2.9 > 10.10.0.2.44064: . ack 201 win 2896 <nop,nop,timestamp 847225 850654>
11:49:31.327009 IP 10.10.0.2.44064 > 10.30.0.2.9: . 1349:1873(524) ack 1 win 2920 <nop,nop,timestamp 850684 847225>
11:49:31.327024 IP 10.10.0.2.44064 > 10.30.0.2.9: . 1873:2397(524) ack 1 win 2920 <nop,nop,timestamp 850684 847225>
11:49:31.338711 IP 10.30.0.2.9 > 10.10.0.2.44064: . ack 301 win 2896 <nop,nop,timestamp 847225 850654>
11:49:31.338742 IP 10.10.0.2.44064 > 10.30.0.2.9: . 2397:2921(524) ack 1 win 2920 <nop,nop,timestamp 850685 847225>
11:49:31.338758 IP 10.10.0.2.44064 > 10.30.0.2.9: FP 2921:3001(80) ack 1 win 2920 <nop,nop,timestamp 850685 847225>
11:49:31.636869 IP 10.30.0.2.9 > 10.10.0.2.44064: . ack 301 win 2896 <nop,nop,timestamp 847256 850654,nop,nop,sack 1 {825:1349}>
11:49:31.637239 IP 10.30.0.2.9 > 10.10.0.2.44064: . ack 301 win 2896 <nop,nop,timestamp 847256 850654,nop,nop,sack 1 {825:1873}>
11:49:31.637350 IP 10.30.0.2.9 > 10.10.0.2.44064: . ack 301 win 2896 <nop,nop,timestamp 847256 850654,nop,nop,sack 1 {825:2397}>
11:49:31.637387 IP 10.10.0.2.44064 > 10.30.0.2.9: . 301:825(524) ack 1 win 2920 <nop,nop,timestamp 850714 847256>
11:49:31.652280 IP 10.30.0.2.9 > 10.10.0.2.44064: . ack 301 win 2896 <nop,nop,timestamp 847258 850654,nop,nop,sack 1 {825:2921}>
11:49:31.946872 IP 10.30.0.2.9 > 10.10.0.2.44064: . ack 3002 win 3420 <nop,nop,timestamp 847287 850714>
11:49:31.947148 IP 10.30.0.2.9 > 10.10.0.2.44064: F 1:1(0) ack 3002 win 3420 <nop,nop,timestamp 847287 850714>
11:49:31.947185 IP 10.10.0.2.44064 > 10.30.0.2.9: . ack 2 win 2920 <nop,nop,timestamp 850745 847287>

c3:~# tcpdump -ni eth0 tcp
tcpdump: verbose output suppressed, use -v or -vv for full protocol decode
listening on eth0, link-type EN10MB (Ethernet), capture size 96 bytes
11:49:28.399917 IP 10.10.0.2.44064 > 10.30.0.2.9: S 4113528368:4113528368(0) win 5840 <mss 1460,sackOK,timestamp 850321 0,nop,wscale 1>
11:49:31.041675 IP 10.10.0.2.44064 > 10.30.0.2.9: S 4113528368:4113528368(0) win 5840 <mss 1460,sackOK,timestamp 850621 0,nop,wscale 1>
11:49:31.359274 IP 10.30.0.2.9 > 10.10.0.2.44064: S 4168881383:4168881383(0) ack 4113528369 win 5792 <mss 536,sackOK,timestamp 847194 850621,nop,wscale 1>
11:49:31.359608 IP 10.10.0.2.44064 > 10.30.0.2.9: . ack 1 win 2920 <nop,nop,timestamp 850652 847194>
11:49:31.360106 IP 10.10.0.2.44064 > 10.30.0.2.9: P 1:101(100) ack 1 win 2920 <nop,nop,timestamp 850652 847194>
11:49:31.368218 IP 10.10.0.2.44064 > 10.30.0.2.9: P 101:201(100) ack 1 win 2920 <nop,nop,timestamp 850654 847194>
11:49:31.371625 IP 10.10.0.2.44064 > 10.30.0.2.9: P 201:301(100) ack 1 win 2920 <nop,nop,timestamp 850654 847194>
11:49:31.669292 IP 10.30.0.2.9 > 10.10.0.2.44064: . ack 101 win 2896 <nop,nop,timestamp 847225 850652>
11:49:31.669325 IP 10.30.0.2.9 > 10.10.0.2.44064: . ack 201 win 2896 <nop,nop,timestamp 847225 850654>
11:49:31.670132 IP 10.10.0.2.44064 > 10.30.0.2.9: . 301:825(524) ack 1 win 2920 <nop,nop,timestamp 850684 847225>
11:49:31.670138 IP 10.10.0.2.44064 > 10.30.0.2.9: . 825:1349(524) ack 1 win 2920 <nop,nop,timestamp 850684 847225>
11:49:31.670355 IP 10.10.0.2.44064 > 10.30.0.2.9: . 1349:1873(524) ack 1 win 2920 <nop,nop,timestamp 850684 847225>
11:49:31.670361 IP 10.10.0.2.44064 > 10.30.0.2.9: . 1873:2397(524) ack 1 win 2920 <nop,nop,timestamp 850684 847225>
11:49:31.681120 IP 10.30.0.2.9 > 10.10.0.2.44064: . ack 301 win 2896 <nop,nop,timestamp 847225 850654>
11:49:31.682206 IP 10.10.0.2.44064 > 10.30.0.2.9: . 2397:2921(524) ack 1 win 2920 <nop,nop,timestamp 850685 847225>
11:49:31.682785 IP 10.10.0.2.44064 > 10.30.0.2.9: FP 2921:3001(80) ack 1 win 2920 <nop,nop,timestamp 850685 847225>
11:49:31.979326 IP 10.30.0.2.9 > 10.10.0.2.44064: . ack 301 win 2896 <nop,nop,timestamp 847256 850654,nop,nop,sack 1 {825:1349}>
11:49:31.979354 IP 10.30.0.2.9 > 10.10.0.2.44064: . ack 301 win 2896 <nop,nop,timestamp 847256 850654,nop,nop,sack 1 {825:1873}>
11:49:31.979362 IP 10.30.0.2.9 > 10.10.0.2.44064: . ack 301 win 2896 <nop,nop,timestamp 847256 850654,nop,nop,sack 1 {825:2397}>
11:49:31.980482 IP 10.10.0.2.44064 > 10.30.0.2.9: . 301:825(524) ack 1 win 2920 <nop,nop,timestamp 850714 847256>
11:49:31.994734 IP 10.30.0.2.9 > 10.10.0.2.44064: . ack 301 win 2896 <nop,nop,timestamp 847258 850654,nop,nop,sack 1 {825:2921}>
11:49:32.289345 IP 10.30.0.2.9 > 10.10.0.2.44064: . ack 3002 win 3420 <nop,nop,timestamp 847287 850714>
11:49:32.289374 IP 10.30.0.2.9 > 10.10.0.2.44064: F 1:1(0) ack 3002 win 3420 <nop,nop,timestamp 847287 850714>
11:49:32.290302 IP 10.10.0.2.44064 > 10.30.0.2.9: . ack 2 win 2920 <nop,nop,timestamp 850745 847287>

